0,0.0,0.0
1,0.0,0.0
2,0.0,0.0
3,0.10599999874830246,2343.318115234375
4,0.21199999749660492,1198.5980224609375
5,0.3179999887943268,76.3888931274414
6,0.42399999499320984,0.0
7,0.5299999713897705,0.0
8,0.6359999775886536,76.74418640136719
9,0.7419999837875366,272.0929870605469
10,0.8479999899864197,313.9534912109375
11,0.9539999961853027,327.9070129394531
12,1.059000015258789,236.11109924316406
13,1.1649999618530273,315.42059326171875
14,1.2710000276565552,348.8371887207031
15,1.3769999742507935,293.0232849121094
16,1.4819999933242798,152.77780151367188
17,1.5880000591278076,369.76739501953125
18,1.694000005722046,432.5581970214844
19,1.7999999523162842,202.3256072998047
20,1.9049999713897705,194.4445037841797
21,2.010999917984009,420.5606994628906
22,2.117000102996826,322.4299011230469
23,2.2230000495910645,251.1627960205078
24,2.328000068664551,236.11109924316406
25,2.434000015258789,369.76739501953125
26,2.5399999618530273,355.8139953613281
27,2.6449999809265137,293.0232849121094
28,2.750999927520752,173.61109924316406
29,2.8570001125335693,387.0968017578125
30,2.9630000591278076,388.8888854980469
31,3.069000005722046,208.3332977294922
32,3.1740000247955322,209.30230712890625
33,3.2799999713897705,434.57940673828125
34,3.385999917984009,320.9302062988281
35,3.494999885559082,236.11109924316406
36,3.6010000705718994,258.13958740234375
37,3.7060000896453857,355.8139953613281
38,3.812000036239624,324.88470458984375
39,3.9179999828338623,272.0929870605469
40,4.0229997634887695,165.8986053466797
41,4.129000186920166,62.5
42,4.235000133514404,48.83721160888672
43,4.341000080108643,41.860469818115234
44,4.446000099182129,0.0
45,4.552000045776367,6.912443161010742
46,4.6579999923706055,0.0
47,4.763999938964844,0.0
48,4.86899995803833,0.0
49,4.974999904632568,0.0
50,5.080999851226807,0.0
51,5.186999797821045,0.0
52,5.293000221252441,0.0
53,5.3979997634887695,0.0
54,5.504000186920166,0.0
55,5.610000133514404,0.0
56,5.716000080108643,0.0
57,5.821000099182129,0.0
58,5.927000045776367,0.0
59,6.0329999923706055,0.0
60,6.138999938964844,0.0
61,6.244999885559082,0.0
62,6.349999904632568,0.0
63,6.455999851226807,0.0
64,6.561999797821045,0.0
65,6.668000221252441,0.0
66,6.77400016784668,0.0
67,6.879000186920166,0.0
68,6.985000133514404,0.0
69,7.091000080108643,0.0
70,7.197000026702881,0.0
71,7.302999973297119,0.0
72,7.408999919891357,0.0
73,7.514999866485596,0.0
74,7.622000217437744,1088.3719482421875
75,7.728000164031982,1855.81396484375
76,7.834000110626221,530.2324829101562
77,7.940000057220459,-41.860469818115234
78,8.045999526977539,0.0
79,8.14900016784668,0.0
80,8.255000114440918,0.0
81,8.361000061035156,0.0
82,8.467000007629395,0.0
83,8.572999954223633,0.0
84,8.678999900817871,0.0
85,8.78600025177002,0.0
86,8.888999938964844,0.0
87,8.994999885559082,0.0
88,9.10099983215332,0.0
89,9.206999778747559,0.0
90,9.312999725341797,0.0
91,9.420000076293945,0.0
92,9.52299976348877,0.0
93,9.628999710083008,0.0
94,9.734999656677246,0.0
95,9.840999603271484,0.0
96,9.946999549865723,0.0
97,10.053000450134277,0.0
98,10.15999984741211,0.0
99,10.265999794006348,0.0
100,10.371999740600586,0.0
101,10.477999687194824,0.0
102,10.583999633789062,0.0
103,10.6899995803833,0.0
104,10.795999526977539,0.0
105,10.902999877929688,0.0
106,11.008999824523926,0.0
107,11.114999771118164,0.0
108,11.220999717712402,0.0
109,11.32800006866455,0.0
110,11.434000015258789,0.0
111,11.539999961853027,0.0
112,11.645999908447266,0.0
113,11.751999855041504,0.0
114,11.859000205993652,0.0
115,11.96500015258789,0.0
116,12.071000099182129,0.0
117,12.180999755859375,0.0
118,12.286999702453613,0.0
119,12.392999649047852,0.0
120,12.49899959564209,0.0
121,12.604999542236328,0.0
122,12.711000442504883,0.0
123,12.817000389099121,6.976745128631592
124,12.92300033569336,0.0
125,13.029000282287598,0.0
126,13.133999824523926,6.9444451332092285
127,13.239999771118164,0.0
128,13.345999717712402,0.0
129,13.451000213623047,0.0
130,13.557000160217285,0.0
131,13.663000106811523,0.0
132,13.769000053405762,0.0
133,13.875,0.0
134,13.979999542236328,0.0
135,14.086000442504883,6.976745128631592
136,14.192000389099121,6.9444451332092285
137,14.29800033569336,6.976745128631592
138,14.404000282287598,0.0
139,14.510000228881836,0.0
140,14.614999771118164,0.0
141,14.720999717712402,0.0
