0,0.0,0.0
1,0.0,0.0
2,1.0,0.0
3,11.0,0.0
4,21.0,0.0
5,31.0,0.0
6,41.0,0.0
7,51.0,0.0
8,61.0,0.0
9,71.0,0.0
10,81.0,0.0
11,91.0,0.0
12,101.0,0.0
13,111.0,0.0
14,121.0,0.0
15,131.0,0.0
16,141.0,0.0
17,151.0,0.0
18,161.0,0.0
19,171.0,0.0
20,181.0,0.0
21,191.0,0.0
22,201.0,0.0
23,211.0,0.0
24,221.0,0.0
25,231.0,0.0
26,241.0,0.0
27,251.0,0.0
28,261.0,0.0
29,271.0,0.0
30,281.0,0.0
31,291.0,0.0
32,301.0,0.0
33,311.0,0.0
34,321.0,0.0
35,331.0,0.0
36,341.0,0.0
37,351.0,0.0
38,361.0,0.0
39,371.0,0.0
40,381.0,0.0
41,391.0,0.0
42,401.0,0.0
43,411.0,0.0
44,421.0,0.0
45,431.0,0.0
46,441.0,0.0
47,451.0,0.0
48,461.0,0.0
49,471.0,0.0
50,481.0,0.0
51,491.0,0.0
52,501.0,0.0
53,511.0,0.0
54,521.0,0.0
55,531.0,0.0
56,541.0,0.0
57,551.0,0.0
58,561.0,0.0
59,571.0,0.0
60,581.0,0.0
61,591.0,0.0
62,601.0,0.0
63,611.0,0.0
64,621.0,0.0
65,631.0,0.0
66,641.0,0.0
67,651.0,0.0
68,661.0,0.0
69,671.0,0.0
70,681.0,0.0
71,691.0,0.0
72,701.0,0.0
73,711.0,0.0
74,721.0,0.0
75,731.0,0.0
76,741.0,0.0
77,751.0,0.0
78,761.0,0.0
79,771.0,0.0
80,781.0,0.0
81,791.0,0.0
82,801.0,0.0
83,811.0,0.0
84,821.0,0.0
85,830.9998779296875,0.0
86,841.0,0.0
87,851.0,0.0
88,861.0,0.0
89,871.0,0.0
90,880.9998779296875,0.0
91,891.0,0.0
92,901.0,0.0
93,911.0,0.0
94,921.0,0.0
95,930.9998779296875,0.0
96,941.0,0.0
97,951.0,0.0
98,961.0,0.0
99,971.0,0.0
100,980.9998779296875,0.0
101,991.0,0.0
102,1001.0,0.0
103,1011.0,0.0
104,1021.0,0.0
105,1031.0,0.0
106,1041.0,0.0
107,1051.0,0.0
108,1061.0,0.0
109,1071.0,0.0
110,1081.0,0.0
111,1091.0,0.0
112,1101.0,0.0
113,1111.0,0.0
114,1121.0,0.0
115,1131.0,0.0
116,1141.0,0.0
117,1151.0,0.0
118,1161.0,0.0
119,1171.0,0.0
120,1181.0,0.0
121,1191.0,0.0
122,1201.0,0.0
123,1211.0,0.0
124,1221.0,0.0
125,1231.0,0.0
126,1241.0,0.0
127,1251.0,0.0
128,1261.0,0.0
129,1271.0,0.0
130,1281.0,0.0
131,1291.0,0.0
132,1301.0,0.0
133,1311.0,0.0
134,1321.0,0.0
135,1331.0,0.0
136,1341.0,0.0
137,1351.0,0.0
138,1361.0,0.0
139,1371.0,0.0
140,1381.0,0.0
141,1391.0,0.0
142,1401.0,0.0
143,1411.0,0.0
144,1421.0,0.0
145,1431.0,0.0
146,1441.0,0.0
147,1451.0,0.0
148,1461.0,0.0
149,1471.0,0.0
150,1481.0,0.0
151,1491.0,0.0
152,1501.0,0.0
153,1511.0,0.0
154,1521.0,0.0
155,1531.0,0.0
156,1541.0,0.0
157,1551.0,0.0
158,1561.0,0.0
159,1571.0,0.0
160,1581.0,0.0
161,1591.0,0.0
162,1601.0,0.0
163,1611.0,0.0
164,1621.0,0.0
165,1631.0,0.0
166,1641.0,0.0
167,1651.0,0.0
168,1661.0,0.0
169,1671.0,0.0
170,1681.0,0.0
171,1691.0,0.0
172,1701.0,0.0
173,1711.0,0.0
174,1721.0,0.0
175,1731.0,0.0
176,1741.0,0.0
177,1751.0,0.0
178,1761.0,0.0
179,1771.0,0.0
180,1781.0,0.0
181,1791.0,0.0
182,1801.0,0.0
183,1811.0,0.0
184,1821.0,0.0
185,1831.0,0.0
186,1841.0,0.0
187,1851.0,0.0
188,1861.0,0.0
189,1872.0,0.0
190,1882.0,0.0
191,1892.0,0.0
192,1902.0,0.0
193,1912.0,0.0
194,1922.0,0.0
195,1932.0,0.0
196,1942.0,0.0
197,1952.0,0.0
198,1962.0,0.0
199,1972.0,0.0
200,1982.0,0.0
201,1992.0,0.0
202,2002.0,0.0
203,2012.0,0.0
204,2022.0,0.0
205,2032.0,0.0
206,2042.0,0.0
207,2052.0,0.0
208,2062.0,0.0
209,2072.0,0.0
210,2082.0,0.0
211,2092.0,0.0
212,2102.0,0.0
213,2112.0,0.0
214,2122.0,0.0
215,2132.0,0.0
216,2142.0,0.0
217,2152.0,0.0
218,2162.0,0.0
219,2172.0,0.0
220,2182.0,0.0
221,2192.0,0.0
222,2202.0,0.0
223,2212.0,0.0
224,2222.0,0.0
225,2232.0,0.0
226,2242.0,0.0
227,2252.0,0.0
228,2262.0,0.0
229,2272.0,0.0
230,2282.0,0.0
231,2292.0,0.0
232,2302.0,0.0
233,2312.0,0.0
234,2322.0,0.0
235,2332.0,0.0
236,2342.0,0.0
237,2352.0,0.0
238,2362.0,0.0
239,2372.0,0.0
240,2382.0,0.0
241,2392.0,0.0
242,2402.0,0.0
243,2412.0,0.0
244,2422.0,0.0
245,2432.0,0.0
246,2442.0,0.0
247,2452.0,0.0
248,2462.0,0.0
249,2472.0,0.0
250,2482.0,0.0
251,2492.0,0.0
252,2502.0,0.0
253,2512.0,0.0
254,2522.0,0.0
255,2532.0,0.0
256,2542.0,0.0
257,2552.0,0.0
258,2562.0,0.0
259,2572.0,0.0
260,2582.0,0.0
261,2592.0,0.0
262,2602.0,0.0
263,2612.0,0.0
264,2622.0,0.0
265,2632.0,0.0
266,2642.0,0.0
267,2652.0,0.0
268,2662.0,0.0
269,2672.0,0.0
270,2682.0,0.0
271,2692.0,0.0
272,2702.0,0.0
273,2712.0,0.0
274,2722.0,0.0
275,2732.0,0.0
276,2742.0,0.0
277,2752.0,0.0
278,2762.0,0.0
279,2772.0,0.0
280,2782.0,0.0
281,2792.0,0.0
282,2802.0,0.0
283,2812.0,0.0
284,2822.0,0.0
285,2832.0,0.0
286,2842.0,0.0
287,2852.0,0.0
288,2862.0,0.0
289,2872.0,0.0
290,2882.0,0.0
291,2892.0,0.0
292,2902.0,0.0
293,2912.0,0.0
294,2922.0,0.0
295,2932.0,0.0
296,2942.0,0.0
297,2952.0,0.0
298,2962.0,0.0
299,2972.0,0.0
300,2982.0,0.0
301,2992.0,0.0
302,3002.0,0.0
303,3012.0,0.0
304,3022.0,0.0
305,3032.0,0.0
306,3042.0,0.0
307,3052.0,0.0
308,3062.0,0.0
309,3072.0,0.0
310,3082.0,0.0
311,3092.0,0.0
312,3102.0,0.0
313,3112.0,0.0
314,3122.0,0.0
315,3132.0,0.0
316,3142.0,0.0
317,3152.0,0.0
318,3162.0,0.0
319,3172.0,0.0
320,3182.0,0.0
321,3192.0,0.0
322,3202.0,0.0
323,3212.0,0.0
324,3222.0,0.0
325,3232.0,0.0
326,3242.0,0.0
327,3252.0,0.0
328,3262.0,0.0
329,3272.0,0.0
330,3282.0,0.0
331,3292.0,0.0
332,3302.0,0.0
333,3312.0,0.0
334,3322.0,0.0
335,3332.0,0.0
336,3342.0,0.0
337,3352.0,0.0
338,3362.0,0.0
339,3372.0,0.0
340,3382.0,0.0
341,3392.0,0.0
342,3402.0,0.0
343,3412.0,0.0
344,3422.0,0.0
345,3432.0,0.0
346,3442.0,0.0
347,3452.0,0.0
348,3462.0,0.0
349,3472.0,0.0
350,3482.0,0.0
351,3492.0,0.0
352,3502.0,0.0
353,3512.0,0.0
354,3522.0,0.0
355,3532.0,0.0
356,3542.0,0.0
357,3552.0,0.0
358,3562.0,0.0
359,3572.0,0.0
360,3582.0,0.0
361,3592.0,0.0
362,3602.0,0.0
363,3612.0,0.0
364,3622.0,0.0
365,3632.0,0.0
366,3642.0,0.0
367,3652.0,0.0
368,3662.0,0.0
369,3672.0,0.0
370,3682.0,0.0
371,3692.0,0.0
372,3702.0,0.0
373,3712.0,0.0
374,3722.0,0.0
375,3732.0,0.0
376,3742.0,0.0
377,3752.0,0.0
378,3762.0,0.0
379,3772.0,0.0
380,3782.0,0.0
381,3792.0,0.0
382,3802.0,0.0
383,3812.0,0.0
384,3822.0,0.0
385,3832.0,0.0
386,3842.0,0.0
387,3852.0,0.0
388,3862.0,0.0
389,3872.0,0.0
390,3882.0,0.0
391,3892.0,0.0
392,3902.0,0.0
393,3912.0,0.0
394,3922.0,0.0
395,3932.0,0.0
396,3942.0,0.0
397,3952.0,0.0
398,3962.0,0.0
399,3972.0,0.0
400,3982.0,0.0
401,3992.0,0.0
402,4002.0,0.0
403,4012.0,0.0
404,4022.0,0.0
405,4032.0,0.0
406,4042.0,0.0
407,4052.0,0.0
408,4062.0,0.0
409,4072.0,0.0
410,4082.0,0.0
411,4092.0,0.0
412,4102.0,1.0
413,4112.0,1.0
414,4122.0,1.0
415,4132.0,2.0
416,4142.0,4.0
417,4152.0,7.0
418,4162.0,13.0
419,4176.0,22.0
420,4186.0,23.0
421,4196.0,25.0
422,4206.0,29.0
423,4216.0,32.0
424,4226.0,37.0
425,4236.0,43.0
426,4246.0,55.0
427,4256.0,73.0
428,4266.0,111.0
429,4276.0,158.0
430,4286.0,216.0
431,4296.0,282.0
432,4306.0,349.0
433,4316.0,429.0
434,4326.0,523.0
435,4336.0,630.0
436,4346.0,766.0
437,4356.0,921.0
438,4366.0,1082.0
439,4376.0,1263.0
440,4386.0,1453.0
441,4396.0,1644.0
442,4406.0,1828.0
443,4416.0,1978.0
444,4426.0,2096.0
445,4436.0,2174.0
446,4446.0,2223.0
447,4456.0,2254.0
448,4466.0,2278.0
449,4476.0,2299.0
450,4486.0,2324.0
451,4496.0,2357.0
452,4506.0,2395.0
453,4516.0,2434.0
454,4526.0,2472.0
455,4536.0,2506.0
456,4546.0,2536.0
457,4556.0,2565.0
458,4566.0,2587.0
459,4576.0,2608.0
460,4586.0,2635.0
461,4596.0,2662.0
462,4606.0,2693.0
463,4616.0,2739.0
464,4626.0,2784.0
465,4636.0,2835.0
466,4646.0,2889.0
467,4656.0,2941.0
468,4666.0,2990.0
469,4676.0,3033.0
470,4686.0,3079.0
471,4696.0,3129.0
472,4706.0,3181.0
473,4716.0,3238.0
474,4726.0,3291.0
475,4736.0,3332.0
476,4746.0,3364.0
477,4756.0,3389.0
478,4766.0,3396.0
479,4776.0,3398.0
480,4786.0,3401.0
481,4796.0,3404.0
482,4806.0,3405.0
483,4816.0,3405.0
484,4826.0,3405.0
485,4836.0,3405.0
486,4846.0,3403.0
487,4856.0,3401.0
488,4866.0,3400.0
489,4876.0,3396.0
490,4886.0,3392.0
491,4896.0,3388.0
492,4906.0,3384.0
493,4916.0,3379.0
494,4926.0,3373.0
495,4936.0,3369.0
496,4946.0,3367.0
497,4956.0,3365.0
498,4966.0,3363.0
499,4976.0,3359.0
500,4986.0,3354.0
501,4996.0,3348.0
502,5006.0,3342.0
503,5016.0,3337.0
504,5026.0,3333.0
505,5036.0,3329.0
506,5046.0,3326.0
507,5056.0,3323.0
508,5066.0,3321.0
509,5076.0,3320.0
510,5086.0,3319.0
511,5096.0,3319.0
512,5106.0,3318.0
513,5116.0,3318.0
514,5126.0,3318.0
515,5136.0,3318.0
516,5146.0,3318.0
517,5156.0,3318.0
518,5166.0,3318.0
519,5176.0,3320.0
520,5186.0,3326.0
521,5196.0,3334.0
522,5206.0,3347.0
523,5216.0,3371.0
524,5226.0,3398.0
525,5236.0,3414.0
526,5246.0,3429.0
527,5256.0,3462.0
528,5266.0,3497.0
529,5276.0,3528.0
530,5286.0,3574.0
531,5300.0,3647.0
532,5310.0,3698.0
533,5320.0,3754.0
534,5330.0,3813.0
535,5340.0,3871.0
536,5350.0,3938.0
537,5360.0,4010.0
538,5370.0,4088.0
539,5380.0,4164.0
540,5390.0,4241.0
541,5400.0,4320.0
542,5410.0,4404.0
543,5420.0,4500.0
544,5430.0,4597.0
545,5440.0,4701.0
546,5450.0,4820.0
547,5460.0,4958.0
548,5470.0,5118.0
549,5480.0,5290.0
550,5490.0,5450.0
551,5500.0,5601.0
552,5510.0,5745.0
553,5520.0,5881.0
554,5530.0,6011.0
555,5540.0,6118.0
556,5550.0,6205.0
557,5560.0,6276.0
558,5570.0,6335.0
559,5580.0,6390.0
560,5590.0,6446.0
561,5600.0,6505.0
562,5610.0,6564.0
563,5620.0,6618.9990234375
564,5630.0,6660.0
565,5640.0,6689.0
566,5650.0,6703.0
567,5660.0,6707.0
568,5670.0,6707.0
569,5680.0,6706.0
570,5690.0,6704.9990234375
571,5701.0,6702.0
572,5711.0,6696.0
573,5721.0,6687.0
574,5731.0,6676.0
575,5741.0,6665.0
576,5751.0,6654.0
577,5761.0,6643.0
578,5771.0,6632.0
579,5781.0,6620.0
580,5791.0,6605.0
581,5801.0,6586.9990234375
582,5811.0,6564.0
583,5821.0,6538.0
584,5831.0,6508.0
585,5841.0,6473.0
586,5851.0,6437.0
587,5861.0,6400.0
588,5871.0,6365.0
589,5881.0,6329.0
590,5891.0,6286.0
591,5901.0,6234.0
592,5911.0,6172.0
593,5921.0,6101.0
594,5931.0,6021.0
595,5942.0,5932.0
596,5952.0,5856.0
597,5962.0,5789.0
598,5972.0,5731.0
599,5982.0,5686.0
600,5992.0,5651.0
601,6002.0,5627.0
602,6012.0,5605.0
603,6022.0,5582.0
604,6032.0,5564.0
605,6042.0,5548.0
606,6052.0,5523.0
607,6062.0,5496.0
608,6072.0,5486.0
609,6082.0,5485.0
610,6092.0,5483.0
611,6102.0,5479.0
612,6112.0,5472.0
613,6122.0,5459.0
614,6132.0,5434.0
615,6142.0,5402.0
616,6152.0,5369.0
617,6162.0,5319.0
618,6172.0,5259.0
619,6182.0,5189.0
620,6192.0,5127.0
621,6202.0,5085.0
622,6212.0,5068.0
623,6222.0,5055.0
624,6232.0,5023.0
625,6242.0,4989.0
626,6252.0,4968.0
627,6262.0,4939.0
628,6272.0,4916.0
629,6282.0,4905.0
630,6292.0,4891.0
631,6302.0,4863.0
632,6312.0,4837.0
633,6322.0,4821.0
634,6332.0,4804.0
635,6343.0,4771.0
636,6353.0,4755.0
637,6363.0,4741.0
638,6373.0,4711.0
639,6383.0,4659.0
640,6393.0,4609.0
641,6403.0,4563.0
642,6417.0,4514.0
643,6427.0,4455.0
644,6437.0,4404.0
645,6447.0,4348.0
646,6457.0,4280.0
647,6467.0,4201.0
648,6477.0,4105.0
649,6487.0,3985.0
650,6497.0,3820.0
651,6507.0,3596.0
652,6517.0,3309.0
653,6527.0,2971.0
654,6537.0,2607.0
655,6547.0,2238.0
656,6557.0,1906.0
657,6567.0,1659.0
658,6577.0,1524.0
659,6586.9990234375,1495.0
660,6597.0,1521.0
661,6607.0,1530.0
662,6617.0,1527.0
663,6627.0,1526.0
664,6637.0,1526.0
665,6647.0,1521.0
666,6657.0,1515.0
667,6667.0,1508.0
668,6677.0,1504.0
669,6687.0,1503.0
670,6697.0,1503.0
671,6707.0,1503.0
672,6717.0,1503.0
673,6727.0,1503.0
674,6737.0,1503.0
675,6747.0,1503.0
676,6757.0,1505.0
677,6767.0,1507.0
678,6777.0,1511.0
679,6787.0,1518.0
680,6797.0,1529.0
681,6807.0,1547.0
682,6817.0,1566.0
683,6827.0,1581.0
684,6836.9990234375,1592.0
685,6847.0,1602.0
686,6857.0,1606.0
687,6867.0,1606.0
688,6877.0,1606.0
689,6887.0,1607.0
690,6897.0,1609.0
691,6908.0,1611.0
692,6918.0,1611.0
693,6928.0,1611.0
694,6938.0,1611.0
695,6947.9990234375,1612.0
696,6958.0,1612.0
697,6968.0,1612.0
698,6978.0,1613.0
699,6988.0,1613.0
700,6998.0,1613.0
701,7008.0,1614.0
702,7018.0,1614.0
703,7028.0,1614.0
704,7038.0,1615.0
705,7048.0,1617.0
706,7058.0,1620.0
707,7068.0,1622.0
708,7078.0,1622.0
709,7088.0,1622.0
710,7098.0,1622.0
711,7108.0,1622.0
712,7118.0,1622.0
713,7128.0,1622.0
714,7138.0,1622.0
715,7149.0,1622.0
716,7159.0,1622.0
717,7169.0,1622.0
718,7179.0,1622.0
719,7189.0,1622.0
720,7199.0,1622.0
721,7209.0,1622.0
722,7218.9990234375,1622.0
723,7229.0,1622.0
724,7239.0,1622.0
725,7249.0,1623.0
726,7259.0,1625.0
727,7269.0,1626.0
728,7279.0,1627.0
729,7289.0,1628.0
730,7299.0,1629.0
731,7309.0,1629.0
732,7319.0,1629.0
733,7329.0,1629.0
734,7339.0,1626.0
735,7349.0,1619.0
736,7359.0,1611.0
737,7368.9990234375,1604.0
738,7379.0,1597.0
739,7390.0,1587.0
740,7400.0,1576.0
741,7410.0,1566.0
742,7420.0,1556.0
743,7430.0,1541.0
744,7440.0,1520.0
745,7450.0,1499.0
746,7460.0,1483.0
747,7470.0,1462.0
748,7480.0,1429.0
749,7490.0,1400.0
750,7500.0,1380.0
751,7510.0,1351.0
752,7520.0,1324.0
753,7530.0,1310.0
754,7540.0,1290.0
755,7550.0,1257.0
756,7560.0,1233.0
757,7570.0,1215.0
758,7579.9990234375,1185.0
759,7590.0,1162.0
760,7600.0,1153.0
761,7610.0,1145.0
762,7620.0,1129.0
763,7630.0,1103.0
764,7640.0,1083.0
765,7650.0,1072.0
766,7660.0,1065.0
767,7670.0,1053.0
768,7680.0,1030.0
769,7690.0,1008.0
770,7700.0,996.9998779296875
771,7710.0,987.0
772,7720.0,973.0
773,7730.0,946.0
774,7740.0,925.0
775,7750.0,917.0
776,7760.0,909.0
777,7770.0,897.0
778,7780.0,872.0
779,7790.0,840.0
780,7800.0,825.0
781,7810.0,815.0
782,7820.0,797.0
783,7829.9990234375,768.0
784,7840.0,752.0
785,7850.0,741.0
786,7860.0,725.0
787,7870.0,687.0
788,7880.0,649.0
789,7890.0,608.0
790,7900.0,569.0
791,7910.0,531.0
792,7920.0,482.0
793,7930.0,430.0
794,7940.0,364.0
795,7950.0,284.0
796,7960.0,186.0
797,7970.0,64.0
798,7980.0,-67.0
799,7990.0,-212.0
800,8000.0,-357.0
801,8010.0,-497.0
802,8020.0,-628.0
803,8030.0,-739.0
804,8040.0,-820.0
805,8050.0,-869.0
806,8060.0,-891.0
807,8070.0,-896.0
808,8080.0,-902.0
809,8090.0,-917.0
810,8100.0,-938.9998779296875
811,8110.0,-963.9998779296875
812,8120.0,-990.0
813,8130.0,-1018.0
814,8140.0,-1054.0
815,8150.0009765625,-1100.0
816,8160.0,-1160.0
817,8170.0,-1233.0
818,8179.9990234375,-1315.0
819,8190.0009765625,-1408.0
820,8200.0,-1512.0
821,8210.0,-1629.0
822,8220.0,-1750.0
823,8230.0,-1868.0
824,8240.0009765625,-1971.0
825,8250.0,-2049.0
826,8260.0,-2106.0
827,8270.0,-2148.0
828,8280.0,-2179.0
829,8290.0,-2204.0
830,8300.0,-2234.0
831,8310.0,-2255.0
832,8320.0,-2271.0
833,8330.0,-2295.0
834,8340.0,-2323.0
835,8350.0,-2337.0
836,8360.0,-2338.0
837,8370.0,-2338.0
838,8380.0,-2339.0
839,8390.0,-2341.0
840,8400.0009765625,-2342.0
841,8410.0,-2344.0
842,8420.0,-2344.0
843,8429.9990234375,-2344.0
844,8440.0009765625,-2345.0
845,8450.0,-2348.0
846,8460.0,-2353.0
847,8470.0,-2361.0
848,8480.0,-2374.0
849,8490.0009765625,-2388.0
850,8500.0,-2398.0
851,8511.0009765625,-2400.0
852,8521.0,-2401.0
853,8531.0,-2403.0
854,8540.9990234375,-2405.0
855,8551.0,-2406.0
856,8561.0,-2408.0
857,8571.0,-2409.0
858,8581.0,-2411.0
859,8595.0,-2418.0
860,8605.0,-2425.0
861,8615.0009765625,-2438.0
862,8625.0,-2456.0
863,8635.0,-2476.0
864,8645.0,-2488.0
865,8655.0,-2489.0
866,8665.0,-2489.0
867,8675.0,-2486.0
868,8685.0,-2479.0
869,8695.0,-2467.0
870,8705.0,-2447.0
871,8715.0,-2421.0
872,8725.0,-2387.0
873,8735.0,-2347.0
874,8745.0,-2304.0
875,8756.0,-2253.0
876,8766.0,-2199.0
877,8776.0,-2136.0
878,8786.0,-2063.0
879,8796.0,-1978.0
880,8806.0,-1877.0
881,8816.0,-1763.0
882,8825.9990234375,-1642.0
883,8836.0,-1519.0
884,8846.0,-1409.0
885,8856.0,-1305.0
886,8866.0,-1208.0
887,8875.9990234375,-1117.0
888,8886.0009765625,-1036.0
889,8896.0,-965.0
890,8906.0,-905.9998779296875
891,8915.9990234375,-859.0
892,8926.0,-820.0
893,8936.0,-786.0
894,8946.0,-756.0
895,8956.0,-733.0
896,8966.0,-709.0
897,8976.0,-685.0
898,8986.0,-667.0
899,8996.0,-653.0
900,9006.0,-638.0
901,9016.0,-617.0
902,9026.0,-596.0
903,9036.0,-582.0
904,9046.0,-571.0
905,9056.0,-552.0
906,9066.0,-520.0
907,9075.9990234375,-484.0
908,9086.0,-443.0
909,9096.0,-397.0
910,9106.0,-347.0
911,9116.0,-306.0
912,9125.9990234375,-267.0
913,9136.0009765625,-232.0
914,9146.0,-193.0
915,9156.0,-147.0
916,9165.9990234375,-95.0
917,9176.0,-39.0
918,9186.0,25.0
919,9196.0,86.0
920,9206.0,127.0
921,9216.0,163.0
922,9226.0,178.0
923,9237.0,200.0
924,9247.0009765625,235.0
925,9257.0,256.0
926,9267.0,272.0
927,9276.9990234375,303.0
928,9287.0,328.0
929,9297.0,342.0
930,9307.0,366.0
931,9317.0,404.0
932,9327.0,426.0
933,9337.0,458.0
934,9347.0,490.0
935,9357.0,507.0
936,9367.0,536.0
937,9377.0,574.0
938,9387.0,602.0
939,9398.0,649.0
940,9408.0,681.0
941,9418.0,726.0
942,9428.0,763.0
943,9438.0,811.0
944,9448.0,855.9998779296875
945,9457.9990234375,909.9998779296875
946,9468.0,963.0
947,9478.0,1014.0
948,9488.0,1070.0
949,9498.0,1121.0
950,9507.9990234375,1174.0
951,9518.0009765625,1230.0
952,9528.0,1290.0
953,9538.0,1361.0
954,9547.9990234375,1447.0
955,9559.0,1561.0
956,9568.9990234375,1667.0
957,9579.0,1766.0
958,9589.0,1856.0
959,9599.0,1933.0
960,9609.0,2000.0
961,9618.9990234375,2056.0
962,9632.9990234375,2103.0
963,9643.0009765625,2154.0
964,9653.0,2183.0
965,9663.0,2206.0
966,9672.9990234375,2225.0
967,9683.0,2237.0
968,9693.0,2241.0
969,9703.0,2240.0
970,9713.0,2237.0
971,9723.0,2232.0
972,9733.0,2225.0
973,9743.0,2219.0
974,9753.0,2216.0
975,9763.0,2217.0
976,9773.0,2217.0
977,9783.0,2217.0
978,9793.0,2217.0
979,9803.0,2217.0
980,9813.0,2217.0
981,9823.0,2217.0
982,9832.9990234375,2217.0
983,9843.0,2217.0
984,9853.0,2217.0
985,9863.0,2217.0
986,9873.0,2217.0
987,9882.9990234375,2217.0
988,9893.0009765625,2217.0
989,9903.0,2217.0
990,9913.0,2217.0
991,9922.9990234375,2218.0
992,9933.0,2222.0
993,9943.0,2231.0
994,9953.0,2245.0
995,9964.0,2264.0
996,9974.0,2281.0
997,9984.0,2297.0
998,9993.9990234375,2311.0
999,10004.0,2324.0
1000,10014.0,2339.0
1001,10024.0,2356.0
1002,10034.0,2379.0
1003,10044.0,2406.0
1004,10054.0,2439.0
1005,10064.0,2481.0
1006,10074.0,2535.0
1007,10084.0,2602.0
1008,10094.0,2683.0
1009,10104.0,2776.0
1010,10114.0,2885.0
1011,10125.0,3020.0
1012,10135.0,3154.0
1013,10145.0,3289.0
1014,10155.0,3414.0
1015,10165.0,3523.0
1016,10175.0,3602.0
1017,10185.0,3659.0
1018,10195.0,3697.0
1019,10205.0,3735.0
1020,10215.0,3780.0
1021,10225.0,3834.0
1022,10235.0,3889.0
1023,10245.0,3947.0
1024,10255.0,4005.0
1025,10265.0,4065.0
1026,10275.0,4130.0
1027,10286.0,4202.0
1028,10296.0,4262.0
1029,10306.0,4315.0
1030,10316.0,4354.0
1031,10326.0,4394.0
1032,10336.0,4430.0
1033,10346.0,4466.0
1034,10356.0,4495.0
1035,10366.0,4506.0
1036,10376.0,4509.0
1037,10386.0,4509.0
1038,10396.0,4509.0
1039,10406.0,4508.0
1040,10416.0,4505.0
1041,10426.0,4499.0
1042,10437.0,4493.0
1043,10447.0,4487.0
1044,10457.0,4481.0
1045,10467.0,4476.0
1046,10477.0,4472.0
1047,10487.0,4466.0
1048,10497.0,4456.0
1049,10507.0,4439.0
1050,10517.0,4415.0
1051,10527.0,4394.0
1052,10537.0,4375.0
1053,10547.0,4357.0
1054,10557.0,4343.0
1055,10567.0,4334.0
1056,10577.0,4326.0
1057,10587.0,4321.0
1058,10597.0,4318.0
1059,10607.0,4314.0
1060,10617.0,4308.0
1061,10627.0,4300.0
1062,10637.0,4293.0
1063,10647.0,4289.0
1064,10657.0,4286.0
1065,10667.0,4284.0
1066,10681.0,4282.0
1067,10691.0,4281.0
1068,10701.0,4281.0
1069,10711.0,4281.0
1070,10721.0,4282.0
1071,10731.0,4282.0
1072,10741.0,4282.0
1073,10751.0,4282.0
1074,10761.0,4282.0
1075,10771.0,4282.0
1076,10781.0,4283.0
1077,10791.0,4284.0
1078,10801.0,4286.0
1079,10811.0,4289.0
1080,10821.0,4296.0
1081,10831.0,4306.0
1082,10841.0,4319.0
1083,10851.0,4331.0
1084,10861.0,4341.0
1085,10871.0,4348.0
1086,10881.0,4359.0
1087,10891.0,4378.0
1088,10901.0,4400.0
1089,10911.0,4417.0
1090,10921.0,4429.0
1091,10931.0,4445.0
1092,10941.0,4469.0
1093,10951.0,4491.0
1094,10961.0,4506.0
1095,10971.0,4525.0
1096,10981.0,4564.0
1097,10991.0,4606.0
1098,11001.0,4659.0
1099,11012.0,4724.0
1100,11022.0,4790.0
1101,11032.0,4858.0
1102,11042.0,4930.0
1103,11052.0,5010.0
1104,11062.0,5097.0
1105,11072.0,5186.0
1106,11082.0,5259.0
1107,11092.0,5314.0
1108,11102.0,5355.0
1109,11112.0,5414.0
1110,11122.0,5481.0
1111,11132.0,5561.0
1112,11142.0,5664.0
1113,11152.0,5787.0
1114,11162.0,5920.0
1115,11172.0,6052.0
1116,11182.0,6165.0
1117,11192.0,6263.0
1118,11202.0,6348.0
1119,11212.0,6421.0
1120,11222.0,6488.0
1121,11232.0,6553.0
1122,11242.0,6621.0
1123,11253.0,6699.0
1124,11263.0,6778.0
1125,11273.0,6867.0
1126,11283.0,6961.0
1127,11293.0,7053.0
1128,11303.0,7136.0
1129,11313.0,7206.0
1130,11323.0,7254.0
1131,11333.0,7276.0
1132,11343.0,7277.0
1133,11353.0,7271.0
1134,11363.0,7261.0
1135,11373.0,7247.0
1136,11383.0,7232.0
1137,11393.0,7218.0
1138,11403.0,7206.0
1139,11413.0,7201.0
1140,11423.0,7201.0
1141,11433.0,7201.0
1142,11443.0,7201.0
1143,11453.0,7201.0
1144,11463.0,7201.0
1145,11473.0,7201.0
1146,11483.0,7201.0
1147,11494.0,7201.0
1148,11504.0,7201.0
1149,11514.0,7201.0
1150,11524.0,7201.0
1151,11534.0,7201.0
1152,11544.0,7201.0
1153,11554.0,7201.0
1154,11564.0,7201.0
1155,11574.0,7201.0
1156,11584.0,7201.0
1157,11594.0,7201.0
1158,11604.0,7201.0
1159,11614.0,7201.0
1160,11624.0,7202.0
1161,11634.0,7202.0
1162,11644.0,7204.0
1163,11654.0,7209.0
1164,11664.0,7217.0
1165,11674.0,7232.0
1166,11684.0,7252.0
1167,11694.0,7279.0
1168,11704.0,7310.0
1169,11714.0,7346.0
1170,11728.0,7390.0
1171,11739.0,7464.0
1172,11749.0,7514.0
1173,11759.0,7566.0
1174,11769.0,7617.0
1175,11779.0,7666.0
1176,11789.0,7710.0
1177,11799.0,7752.0
1178,11809.0,7787.0
1179,11819.0,7822.9990234375
1180,11829.0,7848.0
1181,11839.0,7872.0
1182,11849.0,7904.0
1183,11859.0,7933.0
1184,11869.0,7968.9990234375
1185,11879.0,8014.0
1186,11889.0,8070.0
1187,11899.0,8136.0009765625
1188,11909.0,8200.0
1189,11919.0,8261.0009765625
1190,11929.0,8318.0
1191,11939.0,8373.0
1192,11949.0,8434.0
1193,11959.0,8499.0
1194,11969.0,8561.9990234375
1195,11980.0,8635.0
1196,11990.0,8711.0
1197,12000.0,8792.0
1198,12010.0,8885.0
1199,12020.0,8987.0
1200,12030.0,9087.0
1201,12040.0,9172.9990234375
1202,12051.0,9243.0
1203,12061.0,9306.0
1204,12071.0,9359.0
1205,12081.0,9412.0
1206,12091.0,9456.0
1207,12101.0,9492.0
1208,12111.0,9515.0
1209,12121.0,9551.0
1210,12131.0,9585.0
1211,12142.0,9624.0
1212,12152.0,9651.9990234375
1213,12162.0,9661.0
1214,12172.0,9661.0
1215,12182.0,9661.0
1216,12192.0,9661.0
1217,12202.0,9661.0
1218,12213.0,9660.0
1219,12223.0,9658.0
1220,12233.0,9656.0
1221,12243.0,9654.0
1222,12253.0,9654.0
1223,12263.0,9654.0
1224,12273.0,9654.0
1225,12283.0,9654.0
1226,12293.0,9654.0
1227,12304.0,9654.0
1228,12314.0,9654.0
1229,12324.0,9654.0
1230,12334.0,9654.0
1231,12344.0,9654.0
1232,12354.0,9654.0
1233,12364.0,9654.0
1234,12374.0,9654.0
1235,12384.0,9654.0
1236,12394.0,9654.0
1237,12404.0,9654.0
1238,12414.0,9654.0
1239,12424.0,9654.0
1240,12434.0,9654.0
1241,12444.0,9654.0
1242,12455.0,9654.0
1243,12465.0,9654.0
1244,12475.0,9654.0
1245,12485.0,9654.0
1246,12495.0,9655.0
1247,12505.0,9656.0
1248,12515.0,9658.0
1249,12525.0,9661.0
1250,12535.0,9664.0009765625
1251,12545.0,9668.0
1252,12555.0,9672.9990234375
1253,12565.0,9685.0
1254,12575.0,9709.0
1255,12585.0,9730.0
1256,12595.0,9739.0
1257,12605.0,9745.0
1258,12615.0,9757.9990234375
1259,12626.0,9796.0
1260,12636.0,9847.0
1261,12646.0,9908.9990234375
1262,12656.0,9980.0
1263,12666.0,10055.0
1264,12676.0,10132.0
1265,12686.0,10207.0
1266,12697.0,10275.0
1267,12707.0,10343.0
1268,12717.0,10402.0
1269,12727.0,10460.0
1270,12737.0,10518.0
1271,12747.0,10578.0
1272,12757.0,10647.0
1273,12767.0,10729.0
1274,12781.0,10821.0
1275,12791.0,10960.0
1276,12801.0,11059.0
1277,12811.0,11153.0
1278,12821.0,11236.0
1279,12831.0,11309.0
1280,12841.0,11377.0
1281,12851.0,11443.0
1282,12861.0,11509.0
1283,12871.0,11575.0
1284,12881.0,11638.0
1285,12891.0,11695.0
1286,12901.0,11748.0
1287,12911.0,11793.0
1288,12921.0,11835.0
1289,12931.0,11872.0
1290,12941.0,11910.0
1291,12951.0,11946.0
1292,12961.0,11985.0
1293,12971.0,12024.0
1294,12981.0,12061.0
1295,12991.0,12088.0
1296,13001.0,12098.0
1297,13011.0,12099.0
1298,13021.0,12097.0
1299,13031.0,12092.0
1300,13041.0,12084.0
1301,13051.0,12073.0
1302,13061.0,12059.0
1303,13071.0,12049.0
1304,13081.0,12046.0
1305,13091.0,12046.0
1306,13101.0,12046.0
1307,13111.0,12045.0
1308,13121.0,12044.0
1309,13131.0,12044.0
1310,13141.0,12044.0
1311,13151.0,12044.0
1312,13161.0,12045.0
1313,13171.0,12045.0
1314,13181.0,12045.0
1315,13191.0,12045.0
1316,13201.0,12045.0
1317,13211.0,12045.0
1318,13221.0,12045.0
1319,13231.0,12045.0
1320,13241.0,12045.0
1321,13251.0,12045.0
1322,13261.0,12045.0
1323,13271.0,12045.0
1324,13281.0,12045.0
1325,13291.0,12045.0
1326,13301.0,12045.0
1327,13311.0,12045.0
1328,13321.0,12049.0
1329,13331.0,12059.0
1330,13342.0,12075.0
1331,13352.0,12099.0
1332,13362.0,12131.0
1333,13372.0,12175.0
1334,13382.0,12230.0
1335,13392.0,12292.0
1336,13402.0,12356.0
1337,13412.0,12416.0
1338,13422.0,12474.0
1339,13433.0,12535.0
1340,13443.0,12588.0
1341,13453.0,12636.0
1342,13463.0,12694.0
1343,13473.0,12761.0
1344,13483.0,12831.0
1345,13493.0,12903.0
1346,13503.0,12971.0
1347,13513.0,13035.0
1348,13523.0,13089.0
1349,13533.0,13134.0
1350,13543.0,13178.0
1351,13553.0,13228.0
1352,13563.0,13274.0
1353,13573.0,13323.0
1354,13583.0,13364.0
1355,13593.0,13414.0
1356,13603.0,13459.0
1357,13613.0,13500.0
1358,13623.0,13529.0
1359,13633.0,13560.0
1360,13643.0,13574.0
1361,13653.0,13578.0
1362,13663.0,13580.0
1363,13678.0,13581.0
1364,13688.0,13581.0
1365,13698.0,13581.0
1366,13708.0,13581.0
1367,13718.0,13581.0
1368,13728.0,13581.0
1369,13738.0,13579.0
1370,13748.0,13578.0
1371,13758.0,13576.0
1372,13768.0,13573.0
1373,13778.0,13571.0
1374,13788.0,13568.0
1375,13798.0,13564.0
1376,13808.0,13561.0
1377,13818.0,13558.0
1378,13828.0,13555.0
1379,13838.0,13552.0
1380,13848.0,13547.0
1381,13858.0,13541.0
1382,13868.0,13529.0
1383,13878.0,13506.0
1384,13888.0,13478.0
1385,13898.0,13452.0
1386,13908.0,13411.0
1387,13918.0,13359.0
1388,13928.0,13304.0
1389,13938.0,13241.0
1390,13948.0,13168.0
1391,13958.0,13081.0
1392,13968.0,12978.0
1393,13978.0,12864.0
1394,13988.0,12743.0
1395,13998.0,12609.0
1396,14008.0,12471.0
1397,14018.0,12324.0
1398,14028.0,12174.0
1399,14038.0,12020.0
1400,14048.0,11867.0
1401,14058.0,11717.0
1402,14068.0,11578.0
1403,14079.0,11445.0
1404,14089.0,11343.0
1405,14099.0,11260.0
1406,14109.0,11190.0
1407,14119.0,11137.0
1408,14129.0,11097.0
1409,14139.0,11072.0
1410,14149.0,11060.0
1411,14160.0,11058.0
1412,14170.0,11058.0
1413,14180.0,11062.0
1414,14190.0,11072.0
1415,14200.0,11086.0
1416,14210.0,11101.0
1417,14220.0,11113.0
1418,14230.0,11117.0
1419,14240.0,11117.0
1420,14250.0,11117.0
1421,14260.0,11117.0
1422,14270.0,11117.0
1423,14280.0,11117.0
1424,14290.0,11117.0
1425,14300.0,11117.0
1426,14310.0,11117.0
1427,14321.0,11117.0
1428,14331.0,11117.0
1429,14341.0,11117.0
1430,14351.0,11117.0
1431,14361.0,11117.0
1432,14371.0,11117.0
1433,14381.0,11117.0
1434,14392.0,11117.0
1435,14402.0,11117.0
1436,14412.0,11117.0
1437,14422.0,11114.0
1438,14432.0,11104.0
1439,14442.0,11085.0
1440,14452.0,11056.0
1441,14462.0,11015.0
1442,14473.0,10960.0
1443,14483.0,10875.0
1444,14493.0,10781.0
1445,14503.0,10670.0
1446,14513.0,10549.0
1447,14523.0,10425.0
1448,14533.0,10308.0
1449,14543.0,10209.0
1450,14554.0,10112.0
1451,14564.0,9998.0
1452,14574.0,9900.0009765625
1453,14584.0,9808.0
1454,14594.0,9727.0
1455,14604.0,9658.0
1456,14614.0,9600.0
1457,14624.0,9560.0
1458,14639.0,9526.0
1459,14649.0,9522.0
1460,14659.0,9528.0
1461,14669.0,9530.0
1462,14679.0,9531.0
1463,14689.0,9532.0009765625
1464,14699.0,9532.0009765625
1465,14709.0,9531.0
1466,14719.0,9531.0
1467,14729.0,9531.0
1468,14739.0,9531.0
1469,14749.0,9531.0
1470,14759.0,9531.0
1471,14769.0,9531.0
1472,14779.0,9531.0
1473,14789.0,9531.0
1474,14799.0,9531.0
1475,14809.0,9531.0
1476,14819.0,9531.0
1477,14829.0,9531.0
1478,14839.0,9529.0
1479,14849.0,9524.0
1480,14859.0,9517.0
1481,14869.0,9506.0
1482,14879.0,9485.0
1483,14889.0,9442.0
1484,14899.0,9393.0009765625
1485,14909.0,9318.0
1486,14919.0,9216.0
1487,14929.0,9077.0
1488,14939.0,8898.0
1489,14949.0,8688.0
1490,14959.0,8453.0
1491,14969.0,8195.0
1492,14979.0,7917.0
1493,14989.0,7618.9990234375
1494,14999.0,7310.0
1495,15009.0,7018.0
1496,15019.0,6769.0
1497,15029.0,6583.0
1498,15039.0,6478.0
1499,15050.0,6439.0
1500,15060.0,6456.0
1501,15070.0,6479.0
1502,15080.0,6503.0
1503,15090.0,6522.0
1504,15100.0,6534.0
1505,15110.0,6550.0
1506,15120.0,6572.0
1507,15130.0,6592.0
1508,15140.0,6600.0
1509,15150.0,6600.0
1510,15160.0,6600.0
1511,15170.0,6602.0
1512,15180.0,6603.0
1513,15190.0,6604.0
1514,15200.0,6605.0
1515,15211.0,6607.0
1516,15221.0,6609.0
1517,15231.0,6611.0
1518,15241.0,6613.0
1519,15251.0,6615.0
1520,15261.0,6618.0
1521,15271.0,6621.0
1522,15281.0,6623.0
1523,15291.0,6624.0
1524,15301.0,6624.0
1525,15311.0,6625.0
1526,15321.0,6626.0
1527,15331.0,6626.0
1528,15341.0,6626.0
1529,15351.0,6626.0
1530,15361.0,6623.0
1531,15372.0,6618.9990234375
1532,15382.0,6615.0
1533,15392.0,6609.0
1534,15402.0,6603.0
1535,15412.0,6593.0
1536,15422.0,6583.0
1537,15432.0,6572.0
1538,15442.0,6552.0
1539,15452.0,6511.0
1540,15462.0,6470.0
1541,15472.0,6416.0
1542,15482.0,6360.0
1543,15492.0,6303.0
1544,15502.0,6233.0
1545,15512.0,6145.0
1546,15523.0,6042.0
1547,15533.0,5936.0
1548,15543.0,5855.0
1549,15553.0,5783.0
1550,15563.0,5723.0
1551,15573.0,5663.0
1552,15583.0,5605.0
1553,15593.0,5538.0
1554,15603.0,5468.0
1555,15613.0,5392.0
1556,15623.0,5304.0
1557,15633.0,5205.0
1558,15643.0,5109.0
1559,15653.0,5027.0
1560,15663.0,4958.0
1561,15673.0,4914.0
1562,15683.0,4896.0
1563,15693.0,4901.0
1564,15703.0,4914.0
1565,15713.0,4922.0
1566,15723.0,4923.0
1567,15733.0,4923.0
1568,15743.0,4923.0
1569,15753.0,4923.0
1570,15763.0,4923.0
1571,15773.0,4923.0
1572,15783.0,4923.0
1573,15793.0,4923.0
1574,15803.0,4923.0
1575,15813.0,4923.0
1576,15823.0,4923.0
1577,15833.0,4923.0
1578,15843.0,4923.0
1579,15853.0,4923.0
1580,15863.0,4923.0
1581,15873.0,4923.0
1582,15883.0,4922.0
1583,15893.0,4921.0
1584,15903.0,4916.0
1585,15913.0,4909.0
1586,15923.0,4898.0
1587,15933.0,4883.0
1588,15943.0,4858.0
1589,15953.0,4819.0
1590,15963.0,4764.0
1591,15973.0,4690.0
1592,15983.0,4596.0
1593,15993.0,4483.0
1594,16003.0,4358.0
1595,16013.0,4227.0
1596,16023.0,4072.0
1597,16033.0,3884.0
1598,16043.0,3657.0
1599,16053.0,3404.0
1600,16063.0,3157.0
1601,16073.0,2941.0
1602,16083.0,2773.0
1603,16093.0,2657.0
1604,16103.0,2584.0
1605,16113.0,2541.0
1606,16123.0,2512.0
1607,16133.0,2506.0
1608,16143.0,2506.0
1609,16153.0,2506.0
1610,16163.0,2507.0
1611,16173.0,2510.0
1612,16183.0,2515.0
1613,16193.0,2518.0
1614,16203.0,2522.0
1615,16213.0,2524.0
1616,16223.0,2524.0
1617,16233.0,2524.0
1618,16243.0,2524.0
1619,16253.0,2524.0
1620,16263.0,2524.0
1621,16273.0,2524.0
1622,16283.0,2524.0
1623,16293.0,2524.0
1624,16303.0,2524.0
1625,16313.0,2524.0
1626,16323.0,2525.0
1627,16333.0,2525.0
1628,16343.0,2525.0
1629,16353.0,2525.0
1630,16363.0,2525.0
1631,16373.0,2525.0
1632,16383.0,2525.0
1633,16393.0,2525.0
1634,16403.0,2524.0
1635,16413.0,2524.0
1636,16423.0,2523.0
1637,16433.0,2521.0
1638,16443.0,2518.0
1639,16453.0,2514.0
1640,16463.0,2509.0
1641,16473.0,2503.0
1642,16483.0,2495.0
1643,16493.0,2484.0
1644,16503.0,2461.0
1645,16513.0,2433.0
1646,16523.0,2410.0
1647,16533.0,2366.0
1648,16543.0,2299.0
1649,16553.0,2205.0
1650,16563.0,2087.0
1651,16573.0,1953.0
1652,16583.0,1803.0
1653,16593.0,1631.0
1654,16603.0,1434.0
1655,16613.0,1230.0
1656,16623.0,1029.0
1657,16633.0,828.0
1658,16648.0,634.0
1659,16658.0,378.0
1660,16668.0,228.0
1661,16678.0,97.0
1662,16688.0,-7.0
1663,16698.0,-92.0
1664,16708.0,-158.0
1665,16718.0,-204.0
1666,16728.0,-243.0
1667,16738.0,-260.0
1668,16748.0,-262.0
1669,16758.0,-262.0
1670,16768.0,-262.0
1671,16778.0,-257.0
1672,16788.0,-246.0
1673,16798.0,-230.0
1674,16808.0,-211.0
1675,16818.0,-187.0
1676,16828.0,-165.0
1677,16838.0,-142.0
1678,16848.0,-118.0
1679,16858.0,-102.0
1680,16868.0,-96.0
1681,16878.0,-96.0
1682,16889.0,-96.0
1683,16899.0,-96.0
1684,16909.0,-95.0
1685,16919.0,-93.0
1686,16929.0,-90.0
1687,16939.0,-85.0
1688,16949.0,-80.0
1689,16959.0,-75.0
1690,16969.0,-73.0
1691,16979.0,-71.0
1692,16989.0,-70.0
1693,16999.0,-69.0
1694,17009.0,-67.0
1695,17019.0,-64.0
1696,17029.0,-60.0
1697,17039.0,-59.0
1698,17050.0,-59.0
1699,17060.0,-59.0
1700,17070.0,-62.0
1701,17080.0,-70.0
1702,17090.0,-83.0
1703,17100.0,-98.0
1704,17110.0,-117.0
1705,17120.0,-143.0
1706,17130.0,-170.0
1707,17140.0,-195.0
1708,17150.0,-230.0
1709,17160.0,-263.0
1710,17170.0,-293.0
1711,17180.0,-330.0
1712,17190.0,-357.0
1713,17200.0,-395.0
1714,17210.0,-439.0
1715,17221.0,-496.0
1716,17231.0,-541.0
1717,17241.0,-600.0
1718,17251.0,-671.0
1719,17261.0,-754.0
1720,17271.0,-842.9998779296875
1721,17281.0,-922.0
1722,17291.0,-986.0
1723,17301.0,-1032.0
1724,17311.0,-1072.0
1725,17321.0,-1100.0
1726,17331.0,-1142.0
1727,17341.0,-1181.0
1728,17351.0,-1230.0
1729,17361.0,-1270.0
1730,17372.0,-1312.0
1731,17382.0,-1343.0
1732,17392.0,-1389.0
1733,17402.0,-1434.0
1734,17412.0,-1493.0
1735,17422.0,-1558.0
1736,17432.0,-1630.0
1737,17442.0,-1704.0
1738,17452.0,-1790.0
1739,17462.0,-1884.0
1740,17472.0,-1991.0
1741,17482.0,-2115.0
1742,17492.0,-2242.0
1743,17502.0,-2366.0
1744,17512.0,-2485.0
1745,17522.0,-2600.0
1746,17537.0,-2707.0
1747,17547.0,-2849.0
1748,17557.0,-2926.0
1749,17567.0,-2987.0
1750,17577.0,-3030.0
1751,17587.0,-3055.0
1752,17597.0,-3068.0
1753,17607.0,-3079.0
1754,17617.0,-3095.0
1755,17627.0,-3119.0
1756,17637.0,-3152.0
1757,17647.0,-3197.0
1758,17657.0,-3253.0
1759,17667.0,-3322.0
1760,17677.0,-3401.0
1761,17687.0,-3490.0
1762,17697.0,-3589.0
1763,17707.0,-3692.0
1764,17717.0,-3783.0
1765,17727.0,-3853.0
1766,17737.0,-3901.0
1767,17747.0,-3926.0
1768,17757.0,-3934.0
1769,17767.0,-3937.0
1770,17778.0,-3940.0
1771,17788.0,-3946.0
1772,17798.0,-3952.0
1773,17808.0,-3960.0
1774,17818.0,-3967.0
1775,17828.0,-3975.0
1776,17838.0,-3980.0
1777,17848.0,-3981.0
1778,17858.0,-3981.0
1779,17868.0,-3981.0
1780,17878.0,-3979.0
1781,17888.0,-3973.0
1782,17898.0,-3965.0
1783,17908.0,-3956.0
1784,17918.0,-3947.0
1785,17928.0,-3937.0
1786,17938.0,-3923.0
1787,17948.0,-3903.0
1788,17958.0,-3873.0
1789,17968.0,-3839.0
1790,17978.0,-3800.0
1791,17988.0,-3759.0
1792,17998.0,-3714.0
1793,18008.0,-3665.0
1794,18018.0,-3616.0
1795,18028.0,-3562.0
1796,18038.0,-3507.0
1797,18048.0,-3446.0
1798,18058.0,-3380.0
1799,18068.0,-3309.0
1800,18078.0,-3234.0
1801,18088.0,-3157.0
1802,18099.0,-3078.0
1803,18109.0,-2983.0
1804,18119.0,-2895.0
1805,18129.0,-2802.0
1806,18139.0,-2704.0
1807,18149.0,-2605.0
1808,18159.0,-2505.0
1809,18169.0,-2410.0
1810,18179.0,-2324.0
1811,18189.0,-2255.0
1812,18199.0,-2207.0
1813,18209.0,-2168.0
1814,18219.0,-2141.0
1815,18229.0,-2119.0
1816,18239.0,-2089.0
1817,18249.0,-2068.0
1818,18260.0,-2056.0
1819,18270.0,-2034.0
1820,18280.0,-2001.0
1821,18290.0,-1978.0
1822,18300.0,-1954.0
1823,18310.0,-1917.0
1824,18320.0,-1894.0
1825,18330.0,-1869.0
1826,18340.0,-1828.0
1827,18350.0,-1792.0
1828,18360.0,-1752.0
1829,18370.0,-1727.0
1830,18380.0,-1702.0
1831,18390.0,-1676.0
1832,18400.0,-1662.0
1833,18410.0,-1650.0
1834,18425.0,-1628.0
1835,18435.0,-1586.0
1836,18445.0,-1575.0
1837,18455.0,-1569.0
1838,18465.0,-1562.0
1839,18475.0,-1543.0
1840,18485.0,-1521.0
1841,18495.0,-1508.0
1842,18505.0,-1500.0
1843,18515.0,-1492.0
1844,18525.0,-1479.0
1845,18535.0,-1451.0
1846,18545.0,-1429.0
1847,18555.0,-1416.0
1848,18565.0,-1407.0
1849,18575.0,-1396.0
1850,18585.0,-1375.0
1851,18595.0,-1355.0
1852,18605.0,-1347.0
1853,18615.0,-1346.0
1854,18625.0,-1344.0
1855,18635.0,-1341.0
1856,18645.0,-1337.0
1857,18655.0,-1333.0
1858,18665.0,-1330.0
1859,18676.0,-1327.0
1860,18686.0,-1327.0
1861,18696.0,-1326.0
1862,18706.0,-1326.0
1863,18716.0,-1326.0
1864,18726.0,-1325.0
1865,18736.0,-1325.0
1866,18746.0,-1324.0
1867,18756.0,-1324.0
1868,18766.0,-1324.0
1869,18776.0,-1324.0
1870,18786.0,-1324.0
1871,18796.0,-1324.0
1872,18806.0,-1324.0
1873,18816.0,-1325.0
1874,18827.0,-1326.0
1875,18837.0,-1327.0
1876,18847.0,-1329.0
1877,18857.0,-1332.0
1878,18867.0,-1335.0
1879,18877.0,-1338.0
1880,18887.0,-1342.0
1881,18897.0,-1346.0
1882,18907.0,-1351.0
1883,18917.0,-1355.0
1884,18927.0,-1360.0
1885,18937.0,-1365.0
1886,18947.0,-1374.0
1887,18957.0,-1399.0
1888,18967.0,-1439.0
1889,18977.0,-1477.0
1890,18987.0,-1526.0
1891,18998.0,-1594.0
1892,19008.0,-1659.0
1893,19018.0,-1724.0
1894,19028.0,-1787.0
1895,19038.0,-1853.0
1896,19048.0,-1925.0
1897,19058.0,-2003.0
1898,19068.0,-2099.0
1899,19078.0,-2205.0
1900,19088.0,-2311.0
1901,19098.0,-2413.0
1902,19108.0,-2512.0
1903,19118.0,-2608.0
1904,19128.0,-2702.0
1905,19138.0,-2799.0
1906,19149.0,-2897.0
1907,19159.0,-3005.0
1908,19169.0,-3106.0
1909,19179.0,-3200.0
1910,19189.0,-3287.0
1911,19199.0,-3366.0
1912,19209.0,-3437.0
1913,19219.0,-3505.0
1914,19229.0,-3573.0
1915,19239.0,-3640.0
1916,19249.0,-3698.0
1917,19259.0,-3740.0
1918,19269.0,-3763.0
1919,19279.0,-3770.0
1920,19289.0,-3772.0
1921,19299.0,-3776.0
1922,19314.0,-3783.0
1923,19324.0,-3794.0
1924,19334.0,-3801.0
1925,19344.0,-3808.0
1926,19354.0,-3815.0
1927,19364.0,-3821.0
1928,19374.0,-3826.0
1929,19384.0,-3831.0
1930,19394.0,-3836.0
1931,19404.0,-3841.0
1932,19414.0,-3850.0
1933,19424.0,-3862.0
1934,19434.0,-3876.0
1935,19444.0,-3891.0
1936,19454.0,-3902.0
1937,19464.0,-3907.0
1938,19474.0,-3912.0
1939,19484.0,-3919.0
1940,19494.0,-3930.0
1941,19504.0,-3949.0
1942,19514.0,-3979.0
1943,19524.0,-4011.0
1944,19534.0,-4039.0
1945,19544.0,-4072.0
1946,19554.0,-4094.0
1947,19565.0,-4110.0
1948,19575.0,-4129.0
1949,19585.0,-4144.0
1950,19595.0,-4145.0
1951,19605.0,-4144.0
1952,19615.0,-4145.0
1953,19625.0,-4145.0
1954,19635.0,-4146.0
1955,19645.0,-4147.0
1956,19655.0,-4147.0
1957,19665.0,-4147.0
1958,19675.0,-4147.0
1959,19685.0,-4148.0
1960,19695.0,-4149.0
1961,19705.0,-4151.0
1962,19716.0,-4153.0
1963,19726.0,-4155.0
1964,19736.0,-4155.0
1965,19746.0,-4156.0
1966,19756.0,-4158.0
1967,19766.0,-4161.0
1968,19776.0,-4163.0
1969,19786.0,-4166.0
1970,19796.0,-4169.0
1971,19806.0,-4171.0
1972,19816.0,-4173.0
1973,19826.0,-4176.0
1974,19836.0,-4180.0
1975,19846.0,-4183.0
1976,19856.0,-4185.0
1977,19866.0,-4186.0
1978,19876.0,-4186.0
1979,19887.0,-4186.0
1980,19897.0,-4185.0
1981,19907.0,-4180.0
1982,19917.0,-4166.0
1983,19927.0,-4146.0
1984,19937.0,-4117.0
1985,19947.0,-4087.0
1986,19957.0,-4051.0
1987,19967.0,-4000.0
1988,19977.0,-3935.0
1989,19987.0,-3857.0
1990,19997.0,-3759.0
1991,20007.0,-3643.0
1992,20017.0,-3512.0
1993,20027.0,-3362.0
1994,20038.0,-3193.0
1995,20048.0,-2989.0
1996,20058.0,-2805.0
1997,20068.0,-2631.0
1998,20078.0,-2477.0
1999,20088.0,-2351.0
2000,20098.0,-2265.0
2001,20108.0,-2217.0
2002,20118.0,-2188.0
2003,20128.0,-2165.0
2004,20138.0,-2154.0
2005,20148.0,-2146.0
2006,20158.0,-2129.0
2007,20168.0,-2096.0
2008,20178.0,-2065.0
2009,20188.0,-2045.0
2010,20203.0,-2013.0
2011,20213.0,-1968.0
2012,20223.0,-1930.0
2013,20233.0,-1893.0
2014,20243.0,-1856.0
2015,20253.0,-1812.0
2016,20263.0,-1767.0
2017,20273.0,-1729.0
2018,20283.0,-1694.0
2019,20293.0,-1667.0
2020,20303.0,-1656.0
2021,20313.0,-1653.0
2022,20323.0,-1650.0
2023,20333.0,-1642.0
2024,20343.0,-1628.0
2025,20353.0,-1615.0
2026,20363.0,-1613.0
2027,20373.0,-1613.0
2028,20383.0,-1613.0
2029,20393.0,-1615.0
2030,20403.0,-1617.0
2031,20413.0,-1619.0
2032,20423.0,-1622.0
2033,20433.0,-1628.0
2034,20444.0,-1637.0
2035,20454.0,-1651.0
2036,20464.0,-1668.0
2037,20474.0,-1678.0
2038,20484.0,-1678.0
2039,20494.0,-1678.0
2040,20504.0,-1678.0
2041,20514.0,-1678.0
2042,20524.0,-1680.0
2043,20534.0,-1680.0
2044,20544.0,-1681.0
2045,20554.0,-1681.0
2046,20564.0,-1682.0
2047,20574.0,-1682.0
2048,20584.0,-1683.0
2049,20594.0,-1683.0
2050,20605.0,-1684.0
2051,20615.0,-1685.0
2052,20625.0,-1685.0
2053,20635.0,-1686.0
2054,20645.0,-1687.0
2055,20655.0,-1687.0
2056,20665.0,-1689.0
2057,20675.0,-1692.0
2058,20685.0,-1698.0
2059,20695.0,-1705.0
2060,20705.0,-1710.0
2061,20715.0,-1714.0
2062,20725.0,-1715.0
2063,20735.0,-1715.0
2064,20745.0,-1717.0
2065,20755.0,-1719.0
2066,20766.0,-1721.0
2067,20776.0,-1722.0
2068,20786.0,-1724.0
2069,20796.0,-1725.0
2070,20806.0,-1726.0
2071,20816.0,-1726.0
2072,20826.0,-1727.0
2073,20836.0,-1727.0
2074,20846.0,-1728.0
2075,20856.0,-1728.0
2076,20866.0,-1728.0
2077,20876.0,-1728.0
2078,20886.0,-1728.0
2079,20896.0,-1728.0
2080,20906.0,-1727.0
2081,20916.0,-1725.0
2082,20927.0,-1722.0
2083,20942.0,-1717.0
2084,20952.0,-1711.0
2085,20962.0,-1702.0
2086,20972.0,-1692.0
2087,20982.0,-1688.0
2088,20992.0,-1688.0
2089,21002.0,-1688.0
2090,21012.0,-1686.0
2091,21022.0,-1682.0
2092,21032.0,-1679.0
2093,21042.0,-1675.0
2094,21052.0,-1671.0
2095,21062.0,-1666.0
2096,21072.0,-1662.0
2097,21082.0,-1658.0
2098,21092.0,-1655.0
2099,21102.0,-1651.0
2100,21112.0,-1647.0
2101,21122.0,-1638.0
2102,21132.0,-1626.0
2103,21142.0,-1613.0
2104,21152.0,-1607.0
2105,21162.0,-1603.0
2106,21172.0,-1599.0
2107,21183.0,-1592.0
2108,21193.0,-1586.0
2109,21203.0,-1579.0
2110,21213.0,-1573.0
2111,21223.0,-1566.0
2112,21233.0,-1555.0
2113,21243.0,-1530.0
2114,21253.0,-1505.0
2115,21263.0,-1486.0
2116,21273.0,-1462.0
2117,21283.0,-1428.0
2118,21293.0,-1406.0
2119,21303.0,-1383.0
2120,21313.0,-1346.0
2121,21323.0,-1311.0
2122,21333.0,-1265.0
2123,21344.0,-1216.0
2124,21354.0,-1156.0
2125,21364.0,-1093.0
2126,21374.0,-1031.0
2127,21384.0,-965.0
2128,21394.0,-898.0
2129,21404.0,-828.0
2130,21414.0,-755.0
2131,21424.0,-691.0
2132,21434.0,-626.0
2133,21444.0,-563.0
2134,21454.0,-498.0
2135,21464.0,-425.0
2136,21474.0,-344.0
2137,21484.0,-251.0
2138,21494.0,-152.0
2139,21505.0,-42.0
2140,21515.0,49.0
2141,21525.0,132.0
2142,21535.0,205.0
2143,21545.0,271.0
2144,21555.0,328.0
2145,21565.0,383.0
2146,21575.0,442.0
2147,21585.0,506.0
2148,21595.0,569.0
2149,21605.0,631.0
2150,21615.0,691.0
2151,21625.0,746.0
2152,21635.0,803.0
2153,21645.0,858.0
2154,21655.0,903.0
2155,21670.0,966.0
2156,21680.0,1000.0
2157,21690.0,1028.0
2158,21700.0,1049.0
2159,21710.0,1063.0
2160,21720.0,1070.0
2161,21730.0,1070.0
2162,21740.0,1070.0
2163,21750.0,1070.0
2164,21760.0,1070.0
2165,21770.0,1070.0
2166,21780.0,1070.0
2167,21790.0,1069.0
2168,21800.0,1069.0
2169,21810.0,1069.0
2170,21820.0,1069.0
2171,21830.0,1069.0
2172,21840.0,1068.0
2173,21850.0,1067.0
2174,21860.0,1067.0
2175,21870.0,1067.0
2176,21880.0,1067.0
2177,21890.0,1067.0
2178,21900.0,1067.0
2179,21911.0,1067.0
2180,21921.0,1067.0
2181,21931.0,1067.0
2182,21941.0,1067.0
2183,21951.0,1067.0
2184,21961.0,1067.0
2185,21971.0,1067.0
2186,21981.0,1067.0
2187,21991.0,1068.0
2188,22001.0,1068.0
2189,22011.0,1068.0
2190,22021.0,1068.0
2191,22031.0,1069.0
2192,22041.0,1072.0
2193,22051.0,1076.0
2194,22061.0,1086.0
2195,22072.0,1105.0
2196,22082.0,1132.0
2197,22092.0,1167.0
2198,22102.0,1211.0
2199,22112.0,1266.0
2200,22122.0,1335.0
2201,22132.0,1415.0
2202,22142.0,1497.0
2203,22152.0,1573.0
2204,22162.0,1642.0
2205,22172.0,1695.0
2206,22182.0,1740.0
2207,22192.0,1782.0
2208,22202.0,1828.0
2209,22212.0,1874.0
2210,22222.0,1925.0
2211,22233.0,1990.0
2212,22243.0,2054.0
2213,22253.0,2119.0
2214,22263.0,2182.0
2215,22273.0,2244.0
2216,22283.0,2303.0
2217,22293.0,2355.0
2218,22303.0,2403.0
2219,22313.0,2446.0
2220,22323.0,2493.0
2221,22333.0,2528.0
2222,22343.0,2571.0
2223,22353.0,2602.0
2224,22363.0,2639.0
2225,22373.0,2674.0
2226,22383.0,2706.0
2227,22398.0,2756.0
2228,22408.0,2774.0
2229,22418.0,2805.0
2230,22428.0,2821.0
2231,22438.0,2824.0
2232,22448.0,2825.0
2233,22458.0,2827.0
2234,22468.0,2828.0
2235,22478.0,2829.0
2236,22488.0,2830.0
2237,22498.0,2831.0
2238,22508.0,2832.0
2239,22518.0,2832.0
2240,22528.0,2832.0
2241,22538.0,2832.0
2242,22548.0,2832.0
2243,22558.0,2832.0
2244,22568.0,2831.0
2245,22578.0,2830.0
2246,22588.0,2828.0
2247,22598.0,2826.0
2248,22608.0,2824.0
2249,22618.0,2822.0
2250,22628.0,2819.0
2251,22639.0,2816.0
2252,22649.0,2814.0
2253,22659.0,2813.0
2254,22669.0,2813.0
2255,22679.0,2812.0
2256,22689.0,2811.0
2257,22699.0,2811.0
2258,22709.0,2810.0
2259,22719.0,2810.0
2260,22729.0,2810.0
2261,22739.0,2810.0
2262,22749.0,2809.0
2263,22759.0,2809.0
2264,22769.0,2809.0
2265,22779.0,2809.0
2266,22789.0,2809.0
2267,22800.0,2809.0
2268,22810.0,2809.0
2269,22820.0,2809.0
2270,22830.0,2809.0
2271,22840.0,2809.0
2272,22850.0,2809.0
2273,22860.0,2809.0
2274,22870.0,2809.0
2275,22880.0,2809.0
2276,22890.0,2809.0
2277,22900.0,2809.0
2278,22910.0,2809.0
2279,22920.0,2809.0
2280,22930.0,2809.0
2281,22940.0,2810.0
2282,22950.0,2810.0
2283,22961.0,2812.0
2284,22971.0,2813.0
2285,22981.0,2815.0
2286,22991.0,2817.0
2287,23001.0,2819.0
2288,23011.0,2821.0
2289,23021.0,2824.0
2290,23031.0,2826.0
2291,23041.0,2828.0
2292,23051.0,2830.0
2293,23061.0,2832.0
2294,23071.0,2834.0
2295,23081.0,2835.0
2296,23091.0,2837.0
2297,23101.0,2839.0
2298,23111.0,2842.0
2299,23126.0,2851.0
2300,23136.0,2866.0
2301,23146.0,2888.0
2302,23156.0,2899.0
2303,23166.0,2905.0
2304,23176.0,2913.0
2305,23186.0,2924.0
2306,23196.0,2949.0
2307,23206.0,2994.0
2308,23216.0,3030.0
2309,23226.0,3075.0
2310,23236.0,3107.0
2311,23246.0,3149.0
2312,23256.0,3189.0
2313,23266.0,3239.0
2314,23276.0,3279.0
2315,23286.0,3327.0
2316,23296.0,3378.0
2317,23306.0,3439.0
2318,23316.0,3519.0
2319,23326.0,3614.0
2320,23336.0,3723.0
2321,23346.0,3844.0
2322,23356.0,3970.0
2323,23367.0,4104.0
2324,23377.0,4217.0
2325,23387.0,4311.0
2326,23397.0,4384.0
2327,23407.0,4442.0
2328,23417.0,4492.0
2329,23427.0,4539.0
2330,23437.0,4588.0
2331,23447.0,4641.0
2332,23457.0,4692.0
2333,23467.0,4742.0
2334,23477.0,4790.0
2335,23487.0,4837.0
2336,23497.0,4882.0
2337,23507.0,4924.0
2338,23517.0,4961.0
2339,23528.0,4996.0
2340,23538.0,5026.0
2341,23548.0,5056.0
2342,23558.0,5085.0
2343,23568.0,5114.0
2344,23578.0,5143.0
2345,23588.0,5167.0
2346,23598.0,5188.0
2347,23608.0,5206.0
2348,23618.0,5219.0
2349,23628.0,5225.0
2350,23638.0,5225.0
2351,23648.0,5225.0
2352,23658.0,5225.0
2353,23668.0,5223.0
2354,23678.0,5220.0
2355,23689.0,5217.0
2356,23699.0,5216.0
2357,23709.0,5215.0
2358,23719.0,5214.0
2359,23729.0,5210.0
2360,23739.0,5204.0
2361,23749.0,5203.0
2362,23759.0,5203.0
2363,23769.0,5203.0
2364,23779.0,5203.0
2365,23789.0,5203.0
2366,23799.0,5203.0
2367,23809.0,5203.0
2368,23819.0,5203.0
2369,23829.0,5203.0
2370,23839.0,5203.0
2371,23854.0,5203.0
2372,23864.0,5203.0
2373,23874.0,5203.0
2374,23884.0,5203.0
2375,23894.0,5203.0
2376,23904.0,5203.0
2377,23914.0,5203.0
2378,23924.0,5205.0
2379,23934.0,5210.0
2380,23944.0,5219.0
2381,23954.0,5230.0
2382,23964.0,5242.0
2383,23974.0,5256.0
2384,23984.0,5273.0
2385,23994.0,5291.0
2386,24004.0,5309.0
2387,24014.0,5325.0
2388,24024.0,5343.0
2389,24034.0,5366.0
2390,24044.0,5393.0
2391,24054.0,5428.0
2392,24064.0,5468.0
2393,24074.0,5514.0
2394,24084.0,5559.0
2395,24095.0,5614.0
2396,24105.0,5669.0
2397,24115.0,5723.0
2398,24125.0,5779.0
2399,24135.0,5833.0
2400,24145.0,5882.0
2401,24155.0,5930.0
2402,24165.0,5967.0
2403,24175.0,6008.0
2404,24185.0,6038.0
2405,24195.0,6079.0
2406,24205.0,6123.0
2407,24215.0,6172.0
2408,24225.0,6213.0
2409,24235.0,6253.0
2410,24245.0,6282.0
2411,24256.0,6323.0
2412,24266.0,6351.0
2413,24276.0,6385.0
2414,24286.0,6415.0
2415,24296.0,6432.0
2416,24306.0,6454.9990234375
2417,24316.0,6480.0
2418,24326.0,6491.0
2419,24337.0,6497.0
2420,24347.0,6505.0
2421,24357.0,6517.0
2422,24367.0,6541.0
2423,24377.0,6569.0
2424,24387.0,6586.9990234375
2425,24397.0,6605.0
2426,24407.0,6634.0
2427,24418.0,6661.0
2428,24428.0,6673.0
2429,24438.0,6685.0
2430,24448.0,6710.0
2431,24458.0,6731.0
2432,24468.0,6743.0
2433,24478.0,6755.0
2434,24488.0,6769.0
2435,24498.0,6794.0
2436,24508.0,6810.0
2437,24518.0,6815.0
2438,24528.0,6819.0
2439,24538.0,6825.0
2440,24548.0,6832.0
2441,24558.0,6840.0
2442,24568.0,6853.0
2443,24583.0,6891.0
2444,24593.0,6900.0
2445,24603.0,6904.0
2446,24613.0,6908.0
2447,24623.0,6911.0
2448,24633.0,6913.0
2449,24643.0,6914.0
2450,24653.0,6914.0
2451,24663.0,6914.0
2452,24673.0,6914.0
2453,24683.0,6914.0
2454,24693.0,6913.0
2455,24703.0,6912.0
2456,24713.0,6911.0
2457,24723.0,6909.0
2458,24733.0,6907.0
2459,24743.0,6905.0
2460,24753.0,6903.0
2461,24763.0,6900.0
2462,24773.0,6897.0
2463,24783.0,6893.0
2464,24793.0,6889.0
2465,24803.0,6884.0
2466,24813.0,6879.0
2467,24824.0,6868.0
2468,24834.0,6843.0
2469,24844.0,6809.0
2470,24854.0,6782.0
2471,24864.0,6752.0
2472,24874.0,6726.0
2473,24884.0,6706.0
2474,24894.0,6693.0
2475,24904.0,6684.0
2476,24914.0,6677.0
2477,24924.0,6668.0
2478,24934.0,6653.0
2479,24944.0,6635.0
2480,24954.0,6617.0
2481,24964.0,6609.0
2482,24974.0,6603.0
2483,24985.0,6596.0
2484,24995.0,6588.0
2485,25005.0,6578.0
2486,25015.0,6561.0
2487,25025.0,6538.0
2488,25035.0,6524.0
2489,25045.0,6516.0
2490,25055.0,6508.0
2491,25065.0,6500.0
2492,25075.0,6488.0
2493,25085.0,6459.0
2494,25095.0,6431.0
2495,25105.0,6411.0
2496,25115.0,6384.0
2497,25125.0,6358.0
2498,25135.0,6340.0
2499,25146.0,6318.0
2500,25156.0,6283.0
2501,25166.0,6252.0
2502,25176.0,6218.0
2503,25186.0,6172.0
2504,25196.0,6120.0
2505,25206.0,6062.0
2506,25216.0,5999.0
2507,25226.0,5936.0
2508,25236.0,5875.0
2509,25246.0,5813.0
2510,25256.0,5750.0
2511,25266.0,5692.0
2512,25276.0,5639.0
2513,25286.0,5590.0
2514,25296.0,5543.0
2515,25311.0,5468.0
2516,25321.0,5414.0
2517,25331.0,5351.0
2518,25341.0,5290.0
2519,25351.0,5233.0
2520,25361.0,5184.0
2521,25371.0,5141.0
2522,25381.0,5107.0
2523,25392.0,5076.0
2524,25402.0,5048.0
2525,25412.0,5020.0
2526,25422.0,4992.0
2527,25432.0,4965.0
2528,25442.0,4939.0
2529,25452.0,4916.0
2530,25462.0,4897.0
2531,25472.0,4880.0
2532,25482.0,4860.0
2533,25492.0,4836.0
2534,25502.0,4809.0
2535,25512.0,4780.0
2536,25522.0,4749.0
2537,25532.0,4717.0
2538,25542.0,4686.0
2539,25553.0,4650.0
2540,25563.0,4617.0
2541,25573.0,4583.0
2542,25583.0,4546.0
2543,25593.0,4508.0
2544,25603.0,4466.0
2545,25613.0,4423.0
2546,25623.0,4381.0
2547,25633.0,4343.0
2548,25643.0,4305.0
2549,25653.0,4269.0
2550,25663.0,4235.0
2551,25673.0,4205.0
2552,25683.0,4181.0
2553,25693.0,4164.0
2554,25703.0,4153.0
2555,25714.0,4145.0
2556,25724.0,4136.0
2557,25734.0,4124.0
2558,25744.0,4110.0
2559,25754.0,4094.0
2560,25764.0,4081.0
2561,25774.0,4067.0
2562,25784.0,4051.0
2563,25794.0,4027.0
2564,25804.0,4000.0
2565,25814.0,3980.0
2566,25824.0,3960.0
2567,25834.0,3935.0
2568,25844.0,3916.0
2569,25854.0,3906.0
2570,25864.0,3897.0
2571,25875.0,3880.0
2572,25885.0,3856.0
2573,25895.0,3838.0
2574,25905.0,3832.0
2575,25915.0,3830.0
2576,25925.0,3827.0
2577,25935.0,3822.0
2578,25945.0,3811.0
2579,25955.0,3793.0
2580,25965.0,3769.0
2581,25975.0,3759.0
2582,25985.0,3759.0
2583,25995.0,3759.0
2584,26005.0,3759.0
2585,26015.0,3759.0
2586,26025.0,3759.0
2587,26041.0,3759.0
2588,26051.0,3759.0
2589,26061.0,3759.0
2590,26071.0,3759.0
2591,26081.0,3759.0
2592,26091.0,3759.0
2593,26101.0,3759.0
2594,26111.0,3759.0
2595,26121.0,3759.0
2596,26131.0,3759.0
2597,26141.0,3762.0
2598,26151.0,3764.0
2599,26161.0,3768.0
2600,26171.0,3773.0
2601,26181.0,3779.0
2602,26191.0,3787.0
2603,26201.0,3801.0
2604,26211.0,3814.0
2605,26221.0,3825.0
2606,26231.0,3831.0
2607,26241.0,3836.0
2608,26251.0,3841.0
2609,26261.0,3847.0
2610,26271.0,3856.0
2611,26282.0,3868.0
2612,26292.0,3876.0
2613,26302.0,3877.0
2614,26312.0,3877.0
2615,26322.0,3877.0
2616,26332.0,3877.0
2617,26342.0,3877.0
2618,26352.0,3877.0
2619,26362.0,3877.0
2620,26372.0,3877.0
2621,26382.0,3877.0
2622,26392.0,3877.0
2623,26402.0,3877.0
2624,26412.0,3876.0
2625,26422.0,3876.0
2626,26432.0,3876.0
2627,26443.0,3876.0
2628,26453.0,3876.0
2629,26463.0,3876.0
2630,26473.0,3876.0
2631,26483.0,3876.0
2632,26493.0,3876.0
2633,26503.0,3876.0
2634,26513.0,3876.0
2635,26524.0,3876.0
2636,26534.0,3876.0
2637,26544.0,3876.0
2638,26554.0,3876.0
2639,26564.0,3876.0
2640,26574.0,3876.0
2641,26584.0,3876.0
2642,26594.0,3876.0
2643,26605.0,3876.0
2644,26615.0,3876.0
2645,26625.0,3876.0
2646,26635.0,3876.0
2647,26645.0,3876.0
2648,26655.0,3876.0
2649,26665.0,3876.0
2650,26675.0,3876.0
2651,26685.0,3876.0
2652,26695.0,3876.0
2653,26705.0,3876.0
2654,26715.0,3875.0
2655,26725.0,3871.0
2656,26735.0,3866.0
2657,26745.0,3861.0
2658,26755.0,3855.0
2659,26771.0,3845.0
2660,26781.0,3839.0
2661,26791.0,3831.0
2662,26801.0,3822.0
2663,26811.0,3810.0
2664,26821.0,3789.0
2665,26831.0,3765.0
2666,26841.0,3749.0
2667,26851.0,3744.0
2668,26861.0,3739.0
2669,26871.0,3727.0
2670,26881.0,3703.0
2671,26891.0,3671.0
2672,26901.0,3647.0
2673,26911.0,3618.0
2674,26921.0,3590.0
2675,26931.0,3577.0
2676,26941.0,3565.0
2677,26951.0,3542.0
2678,26961.0,3513.0
2679,26971.0,3492.0
2680,26981.0,3475.0
2681,26991.0,3446.0
2682,27001.0,3422.0
2683,27012.0,3410.0
2684,27022.0,3399.0
2685,27032.0,3377.0
2686,27042.0,3350.0
2687,27052.0,3331.0
2688,27062.0,3322.0
2689,27072.0,3309.0
2690,27082.0,3290.0
2691,27092.0,3272.0
2692,27102.0,3267.0
2693,27112.0,3265.0
2694,27122.0,3263.0
2695,27132.0,3261.0
2696,27142.0,3260.0
2697,27152.0,3259.0
2698,27162.0,3257.0
2699,27173.0,3255.0
2700,27183.0,3252.0
2701,27193.0,3248.0
2702,27203.0,3243.0
2703,27213.0,3237.0
2704,27223.0,3228.0
2705,27233.0,3217.0
2706,27243.0,3201.0
2707,27253.0,3183.0
2708,27263.0,3168.0
2709,27273.0,3152.0
2710,27283.0,3126.0
2711,27293.0,3096.0
2712,27303.0,3071.0
2713,27313.0,3042.0
2714,27323.0,3010.0
2715,27333.0,2993.0
2716,27343.0,2977.0
2717,27353.0,2962.0
2718,27363.0,2952.0
2719,27373.0,2948.0
2720,27383.0,2943.0
2721,27393.0,2937.0
2722,27403.0,2931.0
2723,27414.0,2925.0
2724,27424.0,2918.0
2725,27434.0,2907.0
2726,27444.0,2885.0
2727,27454.0,2865.0
2728,27464.0,2857.0
2729,27474.0,2851.0
2730,27484.0,2843.0
2731,27494.0,2835.0
2732,27504.0,2824.0
2733,27514.0,2801.0
2734,27524.0,2788.0
2735,27534.0,2788.0
2736,27544.0,2785.0
2737,27554.0,2783.0
2738,27564.0,2780.0
2739,27574.0,2777.0
2740,27584.0,2774.0
2741,27594.0,2770.0
2742,27604.0,2766.0
2743,27614.0,2760.0
2744,27624.0,2753.0
2745,27634.0,2741.0
2746,27646.0,2726.0
2747,27656.0,2703.0
2748,27666.0,2701.0
2749,27676.0,2696.0
2750,27686.0,2688.0
2751,27696.0,2679.0
2752,27706.0,2669.0
2753,27716.0,2654.0
2754,27726.0,2627.0
2755,27736.0,2611.0
2756,27746.0,2603.0
2757,27756.0,2593.0
2758,27766.0,2576.0
2759,27776.0,2542.0
2760,27786.0,2511.0
2761,27796.0,2488.0
2762,27806.0,2454.0
2763,27816.0,2431.0
2764,27826.0,2408.0
2765,27836.0,2360.0
2766,27846.0,2313.0
2767,27856.0,2254.0
2768,27866.0,2189.0
2769,27876.0,2123.0
2770,27886.0,2057.0
2771,27896.0,1983.0
2772,27906.0,1902.0
2773,27916.0,1813.0
2774,27926.0,1723.0
2775,27936.0,1642.0
2776,27946.0,1572.0
2777,27956.0,1513.0
2778,27966.0,1460.0
2779,27976.0,1410.0
2780,27986.0,1358.0
2781,27996.0,1308.0
2782,28006.0,1265.0
2783,28016.0,1231.0
2784,28026.0,1207.0
2785,28036.0,1189.0
2786,28046.0,1171.0
2787,28056.0,1150.0
2788,28066.0,1126.0
2789,28076.0,1098.0
2790,28086.0,1066.0
2791,28096.0,1029.0
2792,28106.0,987.0
2793,28116.0,936.0
2794,28126.0,875.0
2795,28137.0,801.0
2796,28147.0,725.0
2797,28157.0,644.0
2798,28167.0,556.0
2799,28177.0,462.0
2800,28187.0,363.0
2801,28197.0,261.0
2802,28207.0,163.0
2803,28217.0,79.0
2804,28227.0,32.0
2805,28237.0,18.0
2806,28247.0,25.0
2807,28257.0,27.0
2808,28267.0,27.0
2809,28277.0,27.0
2810,28287.0,27.0
2811,28298.0,27.0
2812,28308.0,27.0
2813,28318.0,27.0
2814,28328.0,27.0
2815,28338.0,27.0
2816,28348.0,27.0
2817,28358.0,28.0
2818,28368.0,29.0
2819,28378.0,31.0
2820,28388.0,33.0
2821,28398.0,35.0
2822,28408.0,38.0
2823,28418.0,43.0
2824,28428.0,49.0
2825,28438.0,56.0
2826,28448.0,64.0
2827,28458.0,71.0
2828,28468.0,79.0
2829,28478.0,89.00000762939453
2830,28488.0,101.0
2831,28498.0,119.0
2832,28508.0,136.0
2833,28518.0,144.0
2834,28528.0,156.0
2835,28538.0,167.0
2836,28548.0,187.0
2837,28558.0,216.0
2838,28568.0,241.0
2839,28578.0,266.0
2840,28588.0,295.0
2841,28598.0,325.0
2842,28608.0,356.0
2843,28619.0,395.0
2844,28629.0,438.0
2845,28639.0,487.0
2846,28649.0,544.0
2847,28659.0,607.0
2848,28669.0,673.0
2849,28679.0,744.0
2850,28689.0,822.0
2851,28699.0,905.9998779296875
2852,28709.0,991.0
2853,28719.0,1077.0
2854,28729.0,1165.0
2855,28739.0,1254.0
2856,28749.0,1346.0
2857,28759.0,1441.0
2858,28769.0,1535.0
2859,28780.0,1635.0
2860,28790.0,1726.0
2861,28800.0,1811.0
2862,28810.0,1882.0
2863,28820.0,1934.0
2864,28830.0,1968.0
2865,28840.0,2000.0
2866,28850.0,2020.0
2867,28860.0,2039.0
2868,28870.0,2067.0
2869,28880.0,2094.0
2870,28890.0,2111.0
2871,28900.0,2134.0
2872,28910.0,2166.0
2873,28920.0,2198.0
2874,28930.0,2235.0
2875,28940.0,2268.0
2876,28950.0,2296.0
2877,28960.0,2326.0
2878,28970.0,2345.0
2879,28980.0,2360.0
2880,28990.0,2389.0
2881,29000.0,2422.0
2882,29010.0,2449.0
2883,29020.0,2487.0
2884,29030.0,2513.0
2885,29040.0,2536.0
2886,29050.0,2572.0
2887,29060.0,2596.0
2888,29070.0,2621.0
2889,29080.0,2655.0
2890,29090.0,2674.0
2891,29100.0,2689.0
2892,29110.0,2723.0
2893,29120.0,2747.0
2894,29130.0,2756.0
2895,29140.0,2770.0
2896,29150.0,2801.0
2897,29160.0,2820.0
2898,29170.0,2828.0
2899,29180.0,2839.0
2900,29190.0,2858.0
2901,29200.0,2899.0
2902,29210.0,2931.0
2903,29220.0,2975.0
2904,29230.0,3020.0
2905,29240.0,3069.0
2906,29250.0,3110.0
2907,29260.0,3153.0
2908,29270.0,3191.0
2909,29280.0,3232.0
2910,29290.0,3258.0
2911,29300.0,3286.0
2912,29310.0,3321.0
2913,29320.0,3350.0
2914,29335.0,3389.0
2915,29346.0,3449.0
2916,29356.0,3497.0
2917,29366.0,3551.0
2918,29376.0,3607.0
2919,29386.0,3670.0
2920,29396.0,3742.0
2921,29406.0,3818.0
2922,29416.0,3897.0
2923,29426.0,3974.0
2924,29436.0,4051.0
2925,29446.0,4124.0
2926,29456.0,4191.0
2927,29466.0,4250.0
2928,29476.0,4303.0
2929,29486.0,4345.0
2930,29496.0,4381.0
2931,29507.0,4417.0
2932,29517.0,4445.0
2933,29527.0,4471.0
2934,29537.0,4495.0
2935,29547.0,4517.0
2936,29557.0,4536.0
2937,29567.0,4551.0
2938,29578.0,4562.0
2939,29588.0,4568.0
2940,29598.0,4569.0
2941,29608.0,4569.0
2942,29618.0,4569.0
2943,29628.0,4569.0
2944,29638.0,4569.0
2945,29648.0,4570.0
2946,29658.0,4570.0
2947,29668.0,4570.0
2948,29678.0,4570.0
2949,29688.0,4568.0
2950,29698.0,4564.0
2951,29708.0,4562.0
2952,29718.0,4562.0
2953,29728.0,4562.0
2954,29738.0,4562.0
2955,29749.0,4562.0
2956,29759.0,4562.0
2957,29769.0,4562.0
2958,29779.0,4562.0
2959,29789.0,4562.0
2960,29799.0,4562.0
2961,29809.0,4562.0
2962,29820.0,4562.0
2963,29835.0,4561.0
2964,29845.0,4559.0
2965,29855.0,4556.0
2966,29865.0,4553.0
2967,29875.0,4552.0
2968,29885.0,4552.0
2969,29895.0,4552.0
2970,29905.0,4553.0
2971,29915.0,4553.0
2972,29925.0,4557.0
2973,29935.0,4565.0
2974,29945.0,4577.0
2975,29955.0,4598.0
2976,29965.0,4627.0
2977,29975.0,4664.0
2978,29985.0,4705.0
