0,0.0,0.0
1,0.10000000149011612,0.20584289729595184
2,0.20000000298023224,0.39868271350860596
3,0.30000001192092896,0.5704134702682495
4,0.4000000059604645,0.7140058279037476
5,0.5,0.8237888813018799
6,0.6000000238418579,0.8956713080406189
7,0.699999988079071,0.9272860884666443
8,0.800000011920929,0.9180594086647034
9,0.8999999761581421,0.8692001104354858
10,1.0,0.7836121916770935
11,1.100000023841858,0.6657345294952393
12,1.2000000476837158,0.5213186740875244
13,1.2999999523162842,0.3571535050868988
14,1.399999976158142,0.18074969947338104
15,1.5,-7.524548095716455e-08
16,1.600000023841858,-0.17717069387435913
17,1.7000000476837158,-0.3431495130062103
18,1.7999999523162842,-0.49095961451530457
19,1.899999976158142,-0.6145504117012024
20,2.0,-0.7090415954589844
21,2.0999999046325684,-0.7709113955497742
22,2.200000047683716,-0.7981225252151489
23,2.299999952316284,-0.7901811003684998
24,2.4000000953674316,-0.7481275796890259
25,2.5,-0.674461305141449
26,2.5999999046325684,-0.5730028748512268
27,2.700000047683716,-0.44870299100875854
28,2.799999952316284,-0.3074047863483429
29,2.9000000953674316,-0.15557250380516052
30,3.0,1.295288001301742e-07
31,3.0999999046325684,0.1524921953678131
32,3.200000047683716,0.295351505279541
33,3.299999952316284,0.42257270216941833
34,3.4000000953674316,0.5289484858512878
35,3.5,0.6102778911590576
36,3.5999999046325684,0.6635295748710632
37,3.700000047683716,0.6869503855705261
38,3.799999952316284,0.6801151037216187
39,3.9000000953674316,0.6439192891120911
40,4.0,0.5805140137672424
41,4.099999904632568,0.4931882917881012
42,4.199999809265137,0.38620251417160034
43,4.300000190734863,0.26458561420440674
44,4.400000095367432,0.13390250504016876
45,4.5,-1.52072807679815e-08
46,4.599999904632568,-0.13125109672546387
47,4.699999809265137,-0.25421109795570374
48,4.800000190734863,-0.3637118935585022
49,4.900000095367432,-0.45527011156082153
50,5.0,-0.5252708792686462
51,5.099999904632568,-0.571105420589447
52,5.199999809265137,-0.5912637114524841
53,5.300000190734863,-0.585380494594574
54,5.400000095367432,-0.5542263984680176
55,5.5,-0.4996531009674072
56,5.599999904632568,-0.42449089884757996
57,5.699999809265137,-0.33240750432014465
58,5.800000190734863,-0.22773079574108124
59,5.900000095367432,-0.11525080353021622
60,6.0,1.9191449496247515e-07
61,6.099999904632568,0.11296910047531128
62,6.199999809265137,0.2188016027212143
63,6.300000190734863,0.3130497932434082
64,6.400000095367432,0.3918547034263611
65,6.5,0.4521048963069916
66,6.599999904632568,0.49155479669570923
67,6.699999809265137,0.5089054107666016
68,6.800000190734863,0.5038416981697083
69,6.900000095367432,0.47702720761299133
70,7.0,0.43005529046058655
71,7.099999904632568,0.36536261439323425
72,7.199999809265137,0.28610560297966003
73,7.300000190734863,0.19600950181484222
74,7.400000095367432,0.0991971418261528
75,7.5,-3.1909888775771833e-07
76,7.599999904632568,-0.09723351895809174
77,7.699999809265137,-0.18832449615001678
78,7.800000190734863,-0.26944470405578613
79,7.900000095367432,-0.33727240562438965
80,8.0,-0.3891304135322571
81,8.100000381469727,-0.4230853021144867
82,8.199999809265137,-0.43801888823509216
83,8.300000190734863,-0.43366050720214844
84,8.399999618530273,-0.41058120131492615
85,8.5,-0.370152086019516
86,8.600000381469727,-0.31447041034698486
87,8.699999809265137,-0.2462535947561264
88,8.800000190734863,-0.1687072068452835
89,8.899999618530273,-0.08538039773702621
90,9.0,1.93931803948999e-08
91,9.100000381469727,0.08368978649377823
92,9.199999809265137,0.16209210455417633
93,9.300000190734863,0.23191289603710175
94,9.399999618530273,0.29029279947280884
95,9.5,0.334927499294281
96,9.600000381469727,0.3641529083251953
97,9.699999809265137,0.37700629234313965
98,9.800000190734863,0.3732551038265228
99,9.899999618530273,0.3533906042575836
100,10.0,0.31859299540519714
101,10.100000381469727,0.2706668972969055
102,10.199999809265137,0.2119521051645279
103,10.300000190734863,0.14520719647407532
104,10.399999618530273,0.07348716259002686
105,10.5,-4.644427065159107e-07
106,10.600000381469727,-0.07203289866447449
107,10.699999809265137,-0.13951440155506134
108,10.800000190734863,-0.1996096968650818
109,10.899999618530273,-0.2498576045036316
110,11.0,-0.28827500343322754
111,11.100000381469727,-0.3134293854236603
112,11.199999809265137,-0.3244923949241638
113,11.300000190734863,-0.3212636113166809
114,11.399999618530273,-0.3041659891605377
115,11.5,-0.27421531081199646
116,11.600000381469727,-0.23296530544757843
117,11.699999809265137,-0.1824290007352829
118,11.800000190734863,-0.12498120218515396
119,11.899999618530273,-0.06325116753578186
120,12.0,2.1064990107788617e-07
121,12.100000381469727,0.0619991198182106
122,12.199999809265137,0.12008100003004074
123,12.300000190734863,0.1718055009841919
124,12.399999618530273,0.21505430340766907
125,12.5,0.2481205016374588
126,12.600000381469727,0.26977109909057617
127,12.699999809265137,0.2792932093143463
128,12.800000190734863,0.27651411294937134
129,12.899999618530273,0.26179811358451843
130,13.0,0.23601940274238586
131,13.100000381469727,0.20051519572734833
132,13.199999809265137,0.15701819956302643
133,13.300000190734863,0.10757250338792801
134,13.399999618530273,0.0544409416615963
135,13.5,-1.8548460545275702e-08
136,13.600000381469727,-0.05336296930909157
137,13.699999809265137,-0.10335449874401093
138,13.800000190734863,-0.14787420630455017
139,13.899999618530273,-0.18509890139102936
140,14.0,-0.21355949342250824
141,14.100000381469727,-0.2321942001581192
142,14.199999809265137,-0.2403898984193802
143,14.300000190734863,-0.237997904419899
144,14.399999618530273,-0.2253316044807434
145,14.5,-0.20314359664916992
146,14.600000381469727,-0.17258480191230774
147,14.699999809265137,-0.1351466029882431
148,14.800000190734863,-0.09258820861577988
149,14.899999618530273,-0.04685746878385544
150,15.0,3.014633875864092e-07
151,15.100000381469727,0.045930199325084686
152,15.199999809265137,0.08895832300186157
153,15.300000190734863,0.1272767037153244
154,15.399999618530273,0.1593163013458252
155,15.5,0.1838120073080063
156,15.600000381469727,0.199851393699646
157,15.699999809265137,0.20690549910068512
158,15.800000190734863,0.2048467993736267
159,15.899999618530273,0.19394490122795105
160,16.0,0.17484739422798157
161,16.100000381469727,0.14854499697685242
162,16.200000762939453,0.11632149666547775
163,16.299999237060547,0.07969152927398682
164,16.399999618530273,0.04033071920275688
165,16.5,-5.052028200225323e-07
166,16.600000381469727,-0.0395323783159256
167,16.700000762939453,-0.07656767964363098
168,16.799999237060547,-0.1095476970076561
169,16.899999618530273,-0.13712500035762787
170,17.0,-0.15820859372615814
171,17.100000381469727,-0.1720138043165207
172,17.200000762939453,-0.17808519303798676
173,17.299999237060547,-0.17631320655345917
174,17.399999618530273,-0.16692979633808136
175,17.5,-0.15049239993095398
176,17.600000381469727,-0.1278540939092636
177,17.700000762939453,-0.10011869668960571
178,17.799999237060547,-0.06859152019023895
179,17.899999618530273,-0.034712761640548706
180,18.0,1.5769359151818207e-08
181,18.100000381469727,0.03402604162693024
182,18.200000762939453,0.06590203940868378
183,18.299999237060547,0.09428878128528595
184,18.399999618530273,0.1180242970585823
185,18.5,0.13617150485515594
186,18.600000381469727,0.14805349707603455
187,18.700000762939453,0.1532793939113617
188,18.799999237060547,0.1517542004585266
189,18.899999618530273,0.14367780089378357
190,19.0,0.12953029572963715
191,19.100000381469727,0.11004489660263062
192,19.200000762939453,0.08617327362298965
193,19.299999237060547,0.05903710052371025
194,19.399999618530273,0.029877910390496254
195,19.5,-1.9561470310236473e-07
196,19.600000381469727,-0.029286140576004982
197,19.700000762939453,-0.05672255903482437
198,19.799999237060547,-0.08115482330322266
199,19.899999618530273,-0.10158450156450272
200,20.0,-0.11720369756221771
201,20.100000381469727,-0.12743090093135834
202,20.200000762939453,-0.13192880153656006
203,20.299999237060547,-0.13061609864234924
204,20.399999618530273,-0.12366460263729095
205,20.5,-0.11148770153522491
206,20.600000381469727,-0.09471642971038818
207,20.700000762939453,-0.07416988164186478
208,20.799999237060547,-0.05081355944275856
209,20.899999618530273,-0.02571599930524826
210,21.0,3.2505201374988246e-07
211,21.100000381469727,0.02520696073770523
212,21.200000762939453,0.04882171005010605
213,21.299999237060547,0.06985074281692505
214,21.399999618530273,0.08743470907211304
215,21.5,0.10087829828262329
216,21.600000381469727,0.10968080163002014
217,21.700000762939453,0.11355219781398773
218,21.799999237060547,0.11242230236530304
219,21.899999618530273,0.10643920302391052
220,22.0,0.09595821797847748
221,22.100000381469727,0.08152338117361069
222,22.200000762939453,0.06383851170539856
223,22.299999237060547,0.04373588040471077
224,22.399999618530273,0.022133829072117805
225,22.5,-1.2568730056727873e-08
226,22.600000381469727,-0.021695969626307487
227,22.700000762939453,-0.04202099144458771
228,22.799999237060547,-0.06012117862701416
229,22.899999618530273,-0.07525558769702911
230,23.0,-0.08682680130004883
231,23.100000381469727,-0.09440305829048157
232,23.200000762939453,-0.09773524850606918
233,23.299999237060547,-0.0967627689242363
234,23.399999618530273,-0.09161300957202911
235,23.5,-0.08259212225675583
236,23.600000381469727,-0.07016774266958237
237,23.700000762939453,-0.054946500808000565
238,23.799999237060547,-0.03764371946454048
239,23.899999618530273,-0.01905098930001259
240,24.0,1.2689299921930797e-07
241,24.100000381469727,0.01867399923503399
242,24.200000762939453,0.03616790845990181
243,24.299999237060547,0.05174687132239342
244,24.399999618530273,0.06477314978837967
245,24.5,0.07473257184028625
246,24.600000381469727,0.08125351369380951
247,24.700000762939453,0.08412153273820877
248,24.799999237060547,0.08328446000814438
249,24.899999618530273,0.07885201275348663
250,25.0,0.07108765840530396
251,25.100000381469727,0.06039388105273247
252,25.200000762939453,0.0472927987575531
253,25.299999237060547,0.032400161027908325
254,25.399999618530273,0.01639723964035511
255,25.5,-2.0912459319788468e-07
256,25.600000381469727,-0.016072669997811317
257,25.700000762939453,-0.031130090355873108
258,25.799999237060547,-0.04453878849744797
259,25.899999618530273,-0.05575085058808327
260,26.0,-0.0643228217959404
261,26.100000381469727,-0.06993556022644043
262,26.200000762939453,-0.07240404933691025
263,26.299999237060547,-0.0716836228966713
264,26.399999618530273,-0.06786859780550003
265,26.5,-0.061185650527477264
266,26.600000381469727,-0.051981598138809204
267,26.700000762939453,-0.040705230087041855
268,26.799999237060547,-0.02788723073899746
269,26.899999618530273,-0.014113149605691433
270,27.0,9.617012075580078e-09
271,27.100000381469727,0.013833959586918354
272,27.200000762939453,0.026793770492076874
273,27.299999237060547,0.038334958255290985
274,27.399999618530273,0.04798508062958717
275,27.5,0.05536320060491562
276,27.600000381469727,0.06019406020641327
277,27.700000762939453,0.06231873854994774
278,27.799999237060547,0.06169867143034935
279,27.899999618530273,0.05841502919793129
280,28.0,0.05266295000910759
281,28.100000381469727,0.04474091902375221
282,28.200000762939453,0.03503524884581566
283,28.299999237060547,0.024002689868211746
284,28.399999618530273,0.012147230096161366
285,28.5,-8.229014270000334e-08
286,28.600000381469727,-0.011907069943845272
287,28.700000762939453,-0.023061679676175117
288,28.799999237060547,-0.03299526870250702
289,28.899999618530273,-0.041301190853118896
290,29.0,-0.047651588916778564
291,29.100000381469727,-0.05180953070521355
292,29.200000762939453,-0.053638260811567307
293,29.299999237060547,-0.053104519844055176
294,29.399999618530273,-0.05027825012803078
295,29.5,-0.04532748833298683
296,29.600000381469727,-0.0385088287293911
297,29.700000762939453,-0.030155230313539505
298,29.799999237060547,-0.020659249275922775
299,29.899999618530273,-0.010455340147018433
300,30.0,1.345311062550536e-07
